&#128514;&#128514;0x1f602;14622;0.805;0.247;0.285;0.468;0.221;0.221;0.01;FACE WITH TEARS OF JOY;Emoticons
&#10084;&#10084;0x2764;8050;0.747;0.044;0.166;0.790;0.746;0.746;0.01;HEAVY BLACK HEART;Dingbats
&#9829;&#9829;0x2665;7144;0.754;0.035;0.272;0.693;0.657;0.657;0.01;BLACK HEART SUIT;Miscellaneous Symbols
&#128525;&#128525;0x1f60d;6359;0.765;0.052;0.219;0.729;0.678;0.678;0.01;SMILING FACE WITH HEART-SHAPED EYES;Emoticons
&#128557;&#128557;0x1f62d;5526;0.803;0.436;0.220;0.343;-0.093;-0.093;0.02;LOUDLY CRYING FACE;Emoticons
&#128536;&#128536;0x1f618;3648;0.854;0.053;0.193;0.754;0.701;0.701;0.02;FACE THROWING A KISS;Emoticons
&#128522;&#128522;0x1f60a;3186;0.813;0.060;0.237;0.704;0.644;0.644;0.02;SMILING FACE WITH SMILING EYES;Emoticons
&#128076;&#128076;0x1f44c;2925;0.805;0.094;0.249;0.657;0.563;0.563;0.02;OK HAND SIGN;Miscellaneous Symbols and Pictographs
&#128149;&#128149;0x1f495;2400;0.766;0.042;0.285;0.674;0.632;0.632;0.02;TWO HEARTS;Miscellaneous Symbols and Pictographs
&#128079;&#128079;0x1f44f;2336;0.787;0.104;0.271;0.624;0.520;0.520;0.03;CLAPPING HANDS SIGN;Miscellaneous Symbols and Pictographs
&#128513;&#128513;0x1f601;2189;0.796;0.127;0.296;0.577;0.449;0.449;0.03;GRINNING FACE WITH SMILING EYES;Emoticons
&#9786;&#9786;0x263a;2062;0.799;0.062;0.218;0.720;0.657;0.657;0.03;WHITE SMILING FACE;Miscellaneous Symbols
&#9825;&#9825;0x2661;1975;0.764;0.052;0.227;0.721;0.669;0.669;0.03;WHITE HEART SUIT;Miscellaneous Symbols
&#128077;&#128077;0x1f44d;1854;0.812;0.115;0.248;0.637;0.521;0.521;0.03;THUMBS UP SIGN;Miscellaneous Symbols and Pictographs
&#128553;&#128553;0x1f629;1808;0.826;0.591;0.186;0.223;-0.368;-0.368;0.04;WEARY FACE;Emoticons
&#128591;&#128591;0x1f64f;1539;0.794;0.081;0.421;0.498;0.417;0.417;0.03;PERSON WITH FOLDED HANDS;Emoticons
&#9996;&#9996;0x270c;1534;0.790;0.113;0.310;0.576;0.463;0.463;0.03;VICTORY HAND;Dingbats
&#128527;&#128527;0x1f60f;1522;0.765;0.112;0.444;0.444;0.332;0.332;0.03;SMIRKING FACE;Emoticons
&#128521;&#128521;0x1f609;1521;0.845;0.100;0.337;0.563;0.463;0.463;0.03;WINKING FACE;Emoticons
&#128588;&#128588;0x1f64c;1506;0.791;0.101;0.238;0.661;0.559;0.559;0.03;PERSON RAISING BOTH HANDS IN CELEBRATION;Emoticons
&#128584;&#128584;0x1f648;1456;0.739;0.164;0.241;0.596;0.432;0.432;0.04;SEE-NO-EVIL MONKEY;Emoticons
&#128170;&#128170;0x1f4aa;1409;0.807;0.072;0.301;0.627;0.555;0.555;0.03;FLEXED BICEPS;Miscellaneous Symbols and Pictographs
&#128516;&#128516;0x1f604;1398;0.795;0.137;0.305;0.558;0.421;0.421;0.04;SMILING FACE WITH OPEN MOUTH AND SMILING EYES;Emoticons
&#128530;&#128530;0x1f612;1385;0.858;0.591;0.192;0.217;-0.374;-0.374;0.04;UNAMUSED FACE;Emoticons
&#128131;&#128131;0x1f483;1344;0.853;0.045;0.177;0.779;0.734;0.734;0.03;DANCER;Miscellaneous Symbols and Pictographs
&#128150;&#128150;0x1f496;1263;0.762;0.043;0.201;0.755;0.712;0.712;0.03;SPARKLING HEART;Miscellaneous Symbols and Pictographs
&#128515;&#128515;0x1f603;1206;0.735;0.072;0.299;0.629;0.557;0.557;0.04;SMILING FACE WITH OPEN MOUTH;Emoticons
&#128532;&#128532;0x1f614;1205;0.866;0.464;0.219;0.318;-0.146;-0.146;0.05;PENSIVE FACE;Emoticons
&#128561;&#128561;0x1f631;1130;0.773;0.264;0.282;0.454;0.190;0.190;0.05;FACE SCREAMING IN FEAR;Emoticons
&#127881;&#127881;0x1f389;1125;0.744;0.039;0.184;0.777;0.738;0.738;0.03;PARTY POPPER;Miscellaneous Symbols and Pictographs
&#128540;&#128540;0x1f61c;1035;0.822;0.112;0.322;0.566;0.455;0.455;0.04;FACE WITH STUCK-OUT TONGUE AND WINKING EYE;Emoticons
&#9775;&#9775;0x262f;992;0.384;0.006;0.987;0.007;0.001;0.001;0.01;YIN YANG;Miscellaneous Symbols
&#127800;&#127800;0x1f338;946;0.570;0.040;0.270;0.690;0.650;0.650;0.04;CHERRY BLOSSOM;Miscellaneous Symbols and Pictographs
&#128156;&#128156;0x1f49c;939;0.731;0.045;0.257;0.699;0.654;0.654;0.04;PURPLE HEART;Miscellaneous Symbols and Pictographs
&#128153;&#128153;0x1f499;912;0.703;0.033;0.204;0.763;0.730;0.730;0.03;BLUE HEART;Miscellaneous Symbols and Pictographs
&#10024;&#10024;0x2728;848;0.560;0.052;0.545;0.403;0.351;0.351;0.04;SPARKLES;Dingbats
&#128563;&#128563;0x1f633;846;0.797;0.327;0.327;0.345;0.018;0.018;0.06;FLUSHED FACE;Emoticons
&#128151;&#128151;0x1f497;836;0.800;0.051;0.241;0.708;0.657;0.657;0.04;GROWING HEART;Miscellaneous Symbols and Pictographs
&#9733;&#9733;0x2605;828;0.353;0.031;0.655;0.314;0.283;0.283;0.04;BLACK STAR;Miscellaneous Symbols
&#9608;&#9608;0x2588;798;0.634;0.090;0.853;0.057;-0.032;-0.032;0.03;FULL BLOCK;Block Elements
&#9728;&#9728;0x2600;786;0.546;0.028;0.479;0.493;0.465;0.465;0.04;BLACK SUN WITH RAYS;Miscellaneous Symbols
&#128545;&#128545;0x1f621;756;0.862;0.532;0.108;0.360;-0.173;-0.173;0.07;POUTING FACE;Emoticons
&#128526;&#128526;0x1f60e;754;0.766;0.106;0.297;0.597;0.491;0.491;0.05;SMILING FACE WITH SUNGLASSES;Emoticons
&#128546;&#128546;0x1f622;749;0.814;0.384;0.225;0.391;0.007;0.007;0.06;CRYING FACE;Emoticons
&#128139;&#128139;0x1f48b;734;0.801;0.039;0.231;0.730;0.691;0.691;0.04;KISS MARK;Miscellaneous Symbols and Pictographs
&#128523;&#128523;0x1f60b;734;0.765;0.046;0.277;0.677;0.631;0.631;0.04;FACE SAVOURING DELICIOUS FOOD;Emoticons
&#128586;&#128586;0x1f64a;725;0.741;0.135;0.272;0.593;0.459;0.459;0.05;SPEAK-NO-EVIL MONKEY;Emoticons
&#128564;&#128564;0x1f634;718;0.850;0.422;0.237;0.341;-0.080;-0.080;0.06;SLEEPING FACE;Emoticons
&#127926;&#127926;0x1f3b6;701;0.797;0.097;0.270;0.634;0.537;0.537;0.05;MULTIPLE MUSICAL NOTES;Miscellaneous Symbols and Pictographs
&#128158;&#128158;0x1f49e;687;0.829;0.041;0.180;0.780;0.739;0.739;0.04;REVOLVING HEARTS;Miscellaneous Symbols and Pictographs
&#128524;&#128524;0x1f60c;665;0.847;0.141;0.237;0.623;0.482;0.482;0.06;RELIEVED FACE;Emoticons
&#128293;&#128293;0x1f525;651;0.616;0.124;0.613;0.263;0.139;0.139;0.05;FIRE;Miscellaneous Symbols and Pictographs
&#128175;&#128175;0x1f4af;637;0.872;0.281;0.317;0.402;0.120;0.120;0.06;HUNDRED POINTS SYMBOL;Miscellaneous Symbols and Pictographs
&#128299;&#128299;0x1f52b;604;0.894;0.493;0.209;0.298;-0.194;-0.194;0.07;PISTOL;Miscellaneous Symbols and Pictographs
&#128155;&#128155;0x1f49b;602;0.752;0.043;0.205;0.752;0.709;0.709;0.04;YELLOW HEART;Miscellaneous Symbols and Pictographs
&#128129;&#128129;0x1f481;549;0.840;0.192;0.290;0.518;0.326;0.326;0.07;INFORMATION DESK PERSON;Miscellaneous Symbols and Pictographs
&#128154;&#128154;0x1f49a;537;0.737;0.078;0.189;0.733;0.656;0.656;0.05;GREEN HEART;Miscellaneous Symbols and Pictographs
&#9835;&#9835;0x266b;533;0.397;0.063;0.586;0.351;0.287;0.287;0.05;BEAMED EIGHTH NOTES;Miscellaneous Symbols
&#128542;&#128542;0x1f61e;532;0.825;0.479;0.161;0.361;-0.118;-0.118;0.08;DISAPPOINTED FACE;Emoticons
&#128518;&#128518;0x1f606;527;0.809;0.155;0.281;0.564;0.409;0.409;0.06;SMILING FACE WITH OPEN MOUTH AND TIGHTLY-CLOSED EYES;Emoticons
&#128541;&#128541;0x1f61d;496;0.809;0.132;0.313;0.555;0.423;0.423;0.06;FACE WITH STUCK-OUT TONGUE AND TIGHTLY-CLOSED EYES;Emoticons
&#128554;&#128554;0x1f62a;482;0.858;0.431;0.219;0.351;-0.080;-0.080;0.08;SLEEPY FACE;Emoticons
&#65533;&#65533;0xfffd;472;0.113;0.166;0.581;0.253;0.086;0.086;0.06;REPLACEMENT CHARACTER;Specials
&#128555;&#128555;0x1f62b;467;0.840;0.485;0.174;0.340;-0.145;-0.145;0.08;TIRED FACE;Emoticons
&#128517;&#128517;0x1f605;462;0.828;0.292;0.237;0.471;0.178;0.178;0.08;SMILING FACE WITH OPEN MOUTH AND COLD SWEAT;Emoticons
&#128074;&#128074;0x1f44a;458;0.825;0.265;0.243;0.492;0.228;0.228;0.08;FISTED HAND SIGN;Miscellaneous Symbols and Pictographs
&#128128;&#128128;0x1f480;456;0.739;0.468;0.270;0.261;-0.207;-0.207;0.08;SKULL;Miscellaneous Symbols and Pictographs
&#128512;&#128512;0x1f600;439;0.786;0.086;0.260;0.654;0.568;0.568;0.06;GRINNING FACE;Emoticons
&#128538;&#128538;0x1f61a;424;0.853;0.049;0.192;0.759;0.710;0.710;0.05;KISSING FACE WITH CLOSED EYES;Emoticons
&#128571;&#128571;0x1f63b;417;0.730;0.069;0.243;0.688;0.619;0.619;0.06;SMILING CAT FACE WITH HEART-SHAPED EYES;Emoticons
&#169;&#169;0xa9;416;0.740;0.131;0.621;0.248;0.117;0.117;0.06;COPYRIGHT SIGN;Latin-1 Supplement
&#128064;&#128064;0x1f440;410;0.759;0.228;0.482;0.291;0.063;0.063;0.07;EYES;Miscellaneous Symbols and Pictographs
&#128152;&#128152;0x1f498;395;0.785;0.048;0.221;0.731;0.683;0.683;0.06;HEART WITH ARROW;Miscellaneous Symbols and Pictographs
&#128019;&#128019;0x1f413;384;0.491;0.109;0.755;0.137;0.028;0.028;0.05;ROOSTER;Miscellaneous Symbols and Pictographs
&#9749;&#9749;0x2615;382;0.685;0.140;0.475;0.384;0.244;0.244;0.07;HOT BEVERAGE;Miscellaneous Symbols
&#128075;&#128075;0x1f44b;382;0.798;0.158;0.270;0.571;0.413;0.413;0.07;WAVING HAND SIGN;Miscellaneous Symbols and Pictographs
&#9995;&#9995;0x270b;378;0.838;0.328;0.218;0.454;0.126;0.126;0.09;RAISED HAND;Dingbats
&#127882;&#127882;0x1f38a;363;0.724;0.057;0.164;0.779;0.721;0.721;0.06;CONFETTI BALL;Miscellaneous Symbols and Pictographs
&#127829;&#127829;0x1f355;352;0.545;0.056;0.470;0.473;0.417;0.417;0.06;SLICE OF PIZZA;Miscellaneous Symbols and Pictographs
&#10052;&#10052;0x2744;349;0.760;0.099;0.295;0.605;0.506;0.506;0.07;SNOWFLAKE;Dingbats
&#128549;&#128549;0x1f625;341;0.882;0.317;0.244;0.439;0.122;0.122;0.09;DISAPPOINTED BUT RELIEVED FACE;Emoticons
&#128533;&#128533;0x1f615;340;0.857;0.601;0.195;0.204;-0.397;-0.397;0.09;CONFUSED FACE;Emoticons
&#128165;&#128165;0x1f4a5;329;0.587;0.072;0.708;0.220;0.148;0.148;0.06;COLLISION SYMBOL;Miscellaneous Symbols and Pictographs
&#128148;&#128148;0x1f494;328;0.836;0.414;0.293;0.293;-0.121;-0.121;0.09;BROKEN HEART;Miscellaneous Symbols and Pictographs
&#128548;&#128548;0x1f624;327;0.884;0.479;0.252;0.270;-0.209;-0.209;0.09;FACE WITH LOOK OF TRIUMPH;Emoticons
&#128520;&#128520;0x1f608;325;0.762;0.204;0.326;0.470;0.265;0.265;0.08;SMILING FACE WITH HORNS;Emoticons
&#9658;&#9658;0x25ba;325;0.516;0.125;0.588;0.287;0.162;0.162;0.07;BLACK RIGHT-POINTING POINTER;Geometric Shapes
&#9992;&#9992;0x2708;322;0.522;0.043;0.498;0.458;0.415;0.415;0.06;AIRPLANE;Dingbats
&#128285;&#128285;0x1f51d;303;0.798;0.088;0.350;0.562;0.474;0.474;0.07;TOP WITH UPWARDS ARROW ABOVE;Miscellaneous Symbols and Pictographs
&#128560;&#128560;0x1f630;302;0.920;0.436;0.148;0.416;-0.020;-0.020;0.10;FACE WITH OPEN MOUTH AND COLD SWEAT;Emoticons
&#9917;&#9917;0x26bd;299;0.193;0.053;0.278;0.669;0.616;0.616;0.07;SOCCER BALL;Miscellaneous Symbols
&#128529;&#128529;0x1f611;299;0.844;0.513;0.285;0.202;-0.311;-0.311;0.09;EXPRESSIONLESS FACE;Emoticons
&#128081;&#128081;0x1f451;298;0.699;0.043;0.219;0.738;0.694;0.694;0.06;CROWN;Miscellaneous Symbols and Pictographs
&#128569;&#128569;0x1f639;295;0.807;0.299;0.262;0.440;0.141;0.141;0.10;CAT FACE WITH TEARS OF JOY;Emoticons
&#128073;&#128073;0x1f449;292;0.559;0.071;0.468;0.461;0.390;0.390;0.07;WHITE RIGHT POINTING BACKHAND INDEX;Miscellaneous Symbols and Pictographs
&#127811;&#127811;0x1f343;291;0.572;0.102;0.418;0.480;0.378;0.378;0.08;LEAF FLUTTERING IN WIND;Miscellaneous Symbols and Pictographs
&#127873;&#127873;0x1f381;288;0.709;0.041;0.158;0.801;0.759;0.759;0.06;WRAPPED PRESENT;Miscellaneous Symbols and Pictographs
&#128544;&#128544;0x1f620;288;0.849;0.564;0.172;0.265;-0.299;-0.299;0.10;ANGRY FACE;Emoticons
&#128039;&#128039;0x1f427;284;0.540;0.042;0.460;0.498;0.456;0.456;0.07;PENGUIN;Miscellaneous Symbols and Pictographs
&#9734;&#9734;0x2606;282;0.563;0.032;0.509;0.460;0.428;0.428;0.06;WHITE STAR;Miscellaneous Symbols
&#127808;&#127808;0x1f340;278;0.768;0.025;0.665;0.310;0.285;0.285;0.06;FOUR LEAF CLOVER;Miscellaneous Symbols and Pictographs
&#127880;&#127880;0x1f388;277;0.719;0.018;0.246;0.736;0.718;0.718;0.06;BALLOON;Miscellaneous Symbols and Pictographs
&#127877;&#127877;0x1f385;274;0.801;0.029;0.625;0.347;0.318;0.318;0.06;FATHER CHRISTMAS;Miscellaneous Symbols and Pictographs
&#128531;&#128531;0x1f613;273;0.845;0.431;0.217;0.351;-0.080;-0.080;0.10;FACE WITH COLD SWEAT;Emoticons
&#128547;&#128547;0x1f623;271;0.903;0.540;0.131;0.328;-0.212;-0.212;0.11;PERSEVERING FACE;Emoticons
&#128528;&#128528;0x1f610;270;0.883;0.553;0.282;0.165;-0.388;-0.388;0.09;NEUTRAL FACE;Emoticons
&#9994;&#9994;0x270a;270;0.859;0.139;0.293;0.568;0.429;0.429;0.09;RAISED FIST;Dingbats
&#128552;&#128552;0x1f628;269;0.814;0.434;0.272;0.294;-0.140;-0.140;0.10;FEARFUL FACE;Emoticons
&#128534;&#128534;0x1f616;268;0.869;0.483;0.188;0.328;-0.155;-0.155;0.11;CONFOUNDED FACE;Emoticons
&#128164;&#128164;0x1f4a4;267;0.800;0.144;0.341;0.515;0.370;0.370;0.09;SLEEPING SYMBOL;Miscellaneous Symbols and Pictographs
&#128147;&#128147;0x1f493;259;0.783;0.061;0.214;0.725;0.664;0.664;0.07;BEATING HEART;Miscellaneous Symbols and Pictographs
&#128078;&#128078;0x1f44e;258;0.914;0.494;0.199;0.307;-0.188;-0.188;0.11;THUMBS DOWN SIGN;Miscellaneous Symbols and Pictographs
&#128166;&#128166;0x1f4a6;252;0.779;0.141;0.247;0.612;0.471;0.471;0.09;SPLASHING SWEAT SYMBOL;Miscellaneous Symbols and Pictographs
&#10004;&#10004;0x2714;249;0.565;0.127;0.476;0.397;0.270;0.270;0.08;HEAVY CHECK MARK;Dingbats
&#128567;&#128567;0x1f637;246;0.840;0.474;0.221;0.305;-0.169;-0.169;0.11;FACE WITH MEDICAL MASK;Emoticons
&#9889;&#9889;0x26a1;246;0.779;0.044;0.735;0.221;0.177;0.177;0.06;HIGH VOLTAGE SIGN;Miscellaneous Symbols
&#128587;&#128587;0x1f64b;236;0.733;0.130;0.255;0.615;0.485;0.485;0.09;HAPPY PERSON RAISING ONE HAND;Emoticons
&#127876;&#127876;0x1f384;236;0.633;0.067;0.335;0.598;0.531;0.531;0.08;CHRISTMAS TREE;Miscellaneous Symbols and Pictographs
&#128169;&#128169;0x1f4a9;229;0.840;0.409;0.297;0.293;-0.116;-0.116;0.11;PILE OF POO;Miscellaneous Symbols and Pictographs
&#127925;&#127925;0x1f3b5;223;0.715;0.106;0.288;0.606;0.500;0.500;0.09;MUSICAL NOTE;Miscellaneous Symbols and Pictographs
&#10145;&#10145;0x27a1;222;0.478;0.013;0.827;0.160;0.147;0.147;0.05;BLACK RIGHTWARDS ARROW;Dingbats
&#128539;&#128539;0x1f61b;220;0.734;0.085;0.229;0.686;0.601;0.601;0.08;FACE WITH STUCK-OUT TONGUE;Emoticons
&#128556;&#128556;0x1f62c;214;0.794;0.267;0.272;0.461;0.194;0.194;0.11;GRIMACING FACE;Emoticons
&#128111;&#128111;0x1f46f;211;0.742;0.117;0.327;0.556;0.439;0.439;0.09;WOMAN WITH BUNNY EARS;Miscellaneous Symbols and Pictographs
&#128142;&#128142;0x1f48e;209;0.694;0.057;0.325;0.618;0.561;0.561;0.08;GEM STONE;Miscellaneous Symbols and Pictographs
&#127807;&#127807;0x1f33f;208;0.600;0.009;0.597;0.393;0.384;0.384;0.07;HERB;Miscellaneous Symbols and Pictographs
&#127874;&#127874;0x1f382;201;0.748;0.083;0.221;0.696;0.613;0.613;0.09;BIRTHDAY CAKE;Miscellaneous Symbols and Pictographs
&#127775;&#127775;0x1f31f;199;0.655;0.059;0.554;0.386;0.327;0.327;0.08;GLOWING STAR;Miscellaneous Symbols and Pictographs
&#128302;&#128302;0x1f52e;199;0.333;0.035;0.663;0.302;0.267;0.267;0.07;CRYSTAL BALL;Miscellaneous Symbols and Pictographs
&#10071;&#10071;0x2757;198;0.620;0.159;0.582;0.259;0.100;0.100;0.09;HEAVY EXCLAMATION MARK SYMBOL;Dingbats
&#128107;&#128107;0x1f46b;197;0.664;0.220;0.305;0.475;0.255;0.255;0.11;MAN AND WOMAN HOLDING HANDS;Miscellaneous Symbols and Pictographs
&#127942;&#127942;0x1f3c6;194;0.706;0.036;0.203;0.761;0.726;0.726;0.07;TROPHY;Miscellaneous Symbols and Pictographs
&#10006;&#10006;0x2716;193;0.515;0.046;0.597;0.357;0.311;0.311;0.08;HEAVY MULTIPLICATION X;Dingbats
&#9757;&#9757;0x261d;191;0.760;0.144;0.402;0.454;0.309;0.309;0.10;WHITE UP POINTING INDEX;Miscellaneous Symbols
&#128537;&#128537;0x1f619;191;0.876;0.021;0.180;0.799;0.778;0.778;0.07;KISSING FACE WITH SMILING EYES;Emoticons
&#9924;&#9924;0x26c4;191;0.739;0.077;0.325;0.598;0.521;0.521;0.09;SNOWMAN WITHOUT SNOW;Miscellaneous Symbols
&#128069;&#128069;0x1f445;190;0.738;0.124;0.290;0.585;0.461;0.461;0.10;TONGUE;Miscellaneous Symbols and Pictographs
&#9834;&#9834;0x266a;190;0.696;0.083;0.301;0.617;0.534;0.534;0.09;EIGHTH NOTE;Miscellaneous Symbols
&#127810;&#127810;0x1f342;189;0.635;0.036;0.380;0.583;0.547;0.547;0.08;FALLEN LEAF;Miscellaneous Symbols and Pictographs
&#128143;&#128143;0x1f48f;185;0.729;0.181;0.250;0.569;0.388;0.388;0.11;KISS;Miscellaneous Symbols and Pictographs
&#128298;&#128298;0x1f52a;183;0.764;0.210;0.511;0.280;0.070;0.070;0.10;HOCHO;Miscellaneous Symbols and Pictographs
&#127796;&#127796;0x1f334;178;0.676;0.077;0.320;0.602;0.525;0.525;0.09;PALM TREE;Miscellaneous Symbols and Pictographs
&#128072;&#128072;0x1f448;174;0.701;0.085;0.407;0.508;0.424;0.424;0.10;WHITE LEFT POINTING BACKHAND INDEX;Miscellaneous Symbols and Pictographs
&#127801;&#127801;0x1f339;172;0.664;0.023;0.354;0.623;0.600;0.600;0.08;ROSE;Miscellaneous Symbols and Pictographs
&#128582;&#128582;0x1f646;171;0.840;0.092;0.316;0.592;0.500;0.500;0.10;FACE WITH OK GESTURE;Emoticons
&#10140;&#10140;0x279c;170;0.559;0.052;0.734;0.214;0.162;0.162;0.07;HEAVY ROUND-TIPPED RIGHTWARDS ARROW;Dingbats
&#128123;&#128123;0x1f47b;168;0.741;0.170;0.433;0.398;0.228;0.228;0.11;GHOST;Miscellaneous Symbols and Pictographs
&#128176;&#128176;0x1f4b0;168;0.827;0.158;0.433;0.409;0.251;0.251;0.11;MONEY BAG;Miscellaneous Symbols and Pictographs
&#127867;&#127867;0x1f37b;165;0.745;0.107;0.274;0.619;0.512;0.512;0.10;CLINKING BEER MUGS;Miscellaneous Symbols and Pictographs
&#128581;&#128581;0x1f645;165;0.839;0.458;0.286;0.256;-0.202;-0.202;0.13;FACE WITH NO GOOD GESTURE;Emoticons
&#127774;&#127774;0x1f31e;162;0.709;0.024;0.394;0.582;0.558;0.558;0.08;SUN WITH FACE;Miscellaneous Symbols and Pictographs
&#127809;&#127809;0x1f341;161;0.624;0.037;0.445;0.518;0.482;0.482;0.09;MAPLE LEAF;Miscellaneous Symbols and Pictographs
&#11088;&#11088;0x2b50;159;0.601;0.037;0.346;0.617;0.580;0.580;0.09;WHITE MEDIUM STAR;Miscellaneous Symbols and Arrows
&#9642;&#9642;0x25aa;159;0.145;0.099;0.605;0.296;0.198;0.198;0.09;BLACK SMALL SQUARE;Geometric Shapes
&#127872;&#127872;0x1f380;156;0.652;0.044;0.283;0.673;0.629;0.629;0.09;RIBBON;Miscellaneous Symbols and Pictographs
&#9473;&#9473;0x2501;156;0.540;0.094;0.635;0.270;0.176;0.176;0.09;BOX DRAWINGS HEAVY HORIZONTAL;Box Drawing
&#9783;&#9783;0x2637;154;0.012;0.019;0.898;0.083;0.064;0.064;0.05;TRIGRAM FOR EARTH;Miscellaneous Symbols
&#128055;&#128055;0x1f437;152;0.603;0.077;0.477;0.445;0.368;0.368;0.10;PIG FACE;Miscellaneous Symbols and Pictographs
&#128585;&#128585;0x1f649;150;0.758;0.176;0.314;0.510;0.333;0.333;0.12;HEAR-NO-EVIL MONKEY;Emoticons
&#127802;&#127802;0x1f33a;150;0.629;0.020;0.412;0.569;0.549;0.549;0.09;HIBISCUS;Miscellaneous Symbols and Pictographs
&#128133;&#128133;0x1f485;149;0.756;0.184;0.243;0.572;0.388;0.388;0.12;NAIL POLISH;Miscellaneous Symbols and Pictographs
&#128054;&#128054;0x1f436;148;0.654;0.086;0.252;0.662;0.576;0.576;0.10;DOG FACE;Miscellaneous Symbols and Pictographs
&#127770;&#127770;0x1f31a;148;0.760;0.159;0.219;0.623;0.464;0.464;0.12;NEW MOON WITH FACE;Miscellaneous Symbols and Pictographs
&#128125;&#128125;0x1f47d;146;0.612;0.094;0.497;0.409;0.315;0.315;0.10;EXTRATERRESTRIAL ALIEN;Miscellaneous Symbols and Pictographs
&#127908;&#127908;0x1f3a4;144;0.671;0.122;0.279;0.599;0.476;0.476;0.11;MICROPHONE;Miscellaneous Symbols and Pictographs
&#128109;&#128109;0x1f46d;144;0.667;0.143;0.252;0.605;0.463;0.463;0.12;TWO WOMEN HOLDING HANDS;Miscellaneous Symbols and Pictographs
&#127911;&#127911;0x1f3a7;142;0.843;0.131;0.324;0.545;0.414;0.414;0.12;HEADPHONE;Miscellaneous Symbols and Pictographs
&#128070;&#128070;0x1f446;138;0.787;0.121;0.433;0.447;0.326;0.326;0.11;WHITE UP POINTING BACKHAND INDEX;Miscellaneous Symbols and Pictographs
&#127864;&#127864;0x1f378;138;0.663;0.092;0.277;0.631;0.539;0.539;0.11;COCKTAIL GLASS;Miscellaneous Symbols and Pictographs
&#127863;&#127863;0x1f377;137;0.604;0.057;0.493;0.450;0.393;0.393;0.10;WINE GLASS;Miscellaneous Symbols and Pictographs
&#174;&#174;0xae;137;0.353;0.071;0.579;0.350;0.279;0.279;0.10;REGISTERED SIGN;Latin-1 Supplement
&#127817;&#127817;0x1f349;136;0.648;0.079;0.245;0.676;0.597;0.597;0.11;WATERMELON;Miscellaneous Symbols and Pictographs
&#128519;&#128519;0x1f607;135;0.782;0.072;0.268;0.659;0.587;0.587;0.10;SMILING FACE WITH HALO;Emoticons
&#9745;&#9745;0x2611;135;0.690;0.022;0.855;0.123;0.101;0.101;0.06;BALLOT BOX WITH CHECK;Miscellaneous Symbols
&#127939;&#127939;0x1f3c3;135;0.735;0.094;0.406;0.500;0.406;0.406;0.11;RUNNER;Miscellaneous Symbols and Pictographs
&#128575;&#128575;0x1f63f;134;0.812;0.577;0.219;0.204;-0.372;-0.372;0.14;CRYING CAT FACE;Emoticons
&#9474;&#9474;0x2502;134;0.483;0.007;0.642;0.350;0.343;0.343;0.08;BOX DRAWINGS LIGHT VERTICAL;Box Drawing
&#128163;&#128163;0x1f4a3;131;0.847;0.306;0.381;0.313;0.007;0.007;0.13;BOMB;Miscellaneous Symbols and Pictographs
&#127866;&#127866;0x1f37a;131;0.682;0.067;0.373;0.560;0.493;0.493;0.11;BEER MUG;Miscellaneous Symbols and Pictographs
&#9654;&#9654;0x25b6;131;0.498;0.060;0.672;0.269;0.209;0.209;0.09;BLACK RIGHT-POINTING TRIANGLE;Geometric Shapes
&#128562;&#128562;0x1f632;129;0.854;0.386;0.295;0.318;-0.068;-0.068;0.14;ASTONISHED FACE;Emoticons
&#127928;&#127928;0x1f3b8;125;0.605;0.016;0.453;0.531;0.516;0.516;0.09;GUITAR;Miscellaneous Symbols and Pictographs
&#127865;&#127865;0x1f379;123;0.764;0.048;0.246;0.706;0.659;0.659;0.10;TROPICAL DRINK;Miscellaneous Symbols and Pictographs
&#128171;&#128171;0x1f4ab;121;0.614;0.040;0.419;0.540;0.500;0.500;0.10;DIZZY SYMBOL;Miscellaneous Symbols and Pictographs
&#128218;&#128218;0x1f4da;119;0.692;0.189;0.287;0.525;0.336;0.336;0.14;BOOKS;Miscellaneous Symbols and Pictographs
&#128566;&#128566;0x1f636;117;0.869;0.425;0.292;0.283;-0.142;-0.142;0.15;FACE WITHOUT MOUTH;Emoticons
&#127799;&#127799;0x1f337;116;0.623;0.008;0.445;0.546;0.538;0.538;0.09;TULIP;Miscellaneous Symbols and Pictographs
&#128157;&#128157;0x1f49d;115;0.774;0.076;0.203;0.720;0.644;0.644;0.11;HEART WITH RIBBON;Miscellaneous Symbols and Pictographs
&#128168;&#128168;0x1f4a8;115;0.711;0.110;0.398;0.492;0.381;0.381;0.12;DASH SYMBOL;Miscellaneous Symbols and Pictographs
&#127944;&#127944;0x1f3c8;114;0.823;0.068;0.333;0.598;0.530;0.530;0.11;AMERICAN FOOTBALL;Miscellaneous Symbols and Pictographs
&#128141;&#128141;0x1f48d;112;0.808;0.148;0.226;0.626;0.478;0.478;0.14;RING;Miscellaneous Symbols and Pictographs
&#9748;&#9748;0x2614;111;0.687;0.193;0.325;0.482;0.289;0.289;0.14;UMBRELLA WITH RAIN DROPS;Miscellaneous Symbols
&#128120;&#128120;0x1f478;111;0.654;0.061;0.272;0.667;0.605;0.605;0.11;PRINCESS;Miscellaneous Symbols and Pictographs
&#127466;&#127466;0x1f1ea;109;0.699;0.027;0.330;0.643;0.616;0.616;0.10;REGIONAL INDICATOR SYMBOL LETTER E;Enclosed Alphanumeric Supplement
&#9617;&#9617;0x2591;108;0.439;0.234;0.577;0.189;-0.045;-0.045;0.12;LIGHT SHADE;Block Elements
&#127849;&#127849;0x1f369;107;0.709;0.145;0.327;0.527;0.382;0.382;0.14;DOUGHNUT;Miscellaneous Symbols and Pictographs
&#128126;&#128126;0x1f47e;105;0.552;0.019;0.602;0.380;0.361;0.361;0.10;ALIEN MONSTER;Miscellaneous Symbols and Pictographs
&#9729;&#9729;0x2601;104;0.596;0.140;0.411;0.449;0.308;0.308;0.14;CLOUD;Miscellaneous Symbols
&#127803;&#127803;0x1f33b;104;0.607;0.019;0.393;0.589;0.570;0.570;0.10;SUNFLOWER;Miscellaneous Symbols and Pictographs
&#128565;&#128565;0x1f635;103;0.809;0.321;0.274;0.406;0.085;0.085;0.16;DIZZY FACE;Emoticons
&#128210;&#128210;0x1f4d2;102;0.474;0.010;0.943;0.048;0.038;0.038;0.05;LEDGER;Miscellaneous Symbols and Pictographs
&#8639;&#8639;0x21bf;102;0.711;0.010;0.333;0.657;0.648;0.648;0.10;UPWARDS HARPOON WITH BARB LEFTWARDS;Arrows
&#128047;&#128047;0x1f42f;100;0.550;0.049;0.427;0.524;0.476;0.476;0.12;TIGER FACE;Miscellaneous Symbols and Pictographs
&#128124;&#128124;0x1f47c;99;0.683;0.176;0.314;0.510;0.333;0.333;0.15;BABY ANGEL;Miscellaneous Symbols and Pictographs
&#127828;&#127828;0x1f354;98;0.637;0.168;0.386;0.446;0.277;0.277;0.15;HAMBURGER;Miscellaneous Symbols and Pictographs
&#128568;&#128568;0x1f638;97;0.782;0.120;0.350;0.530;0.410;0.410;0.14;GRINNING CAT FACE WITH SMILING EYES;Emoticons
&#128118;&#128118;0x1f476;96;0.745;0.141;0.283;0.576;0.434;0.434;0.15;BABY;Miscellaneous Symbols and Pictographs
&#8638;&#8638;0x21be;96;0.707;0.010;0.333;0.657;0.646;0.646;0.10;UPWARDS HARPOON WITH BARB RIGHTWARDS;Arrows
&#128144;&#128144;0x1f490;95;0.728;0.041;0.184;0.776;0.735;0.735;0.11;BOUQUET;Miscellaneous Symbols and Pictographs
&#127754;&#127754;0x1f30a;95;0.780;0.092;0.316;0.592;0.500;0.500;0.13;WATER WAVE;Miscellaneous Symbols and Pictographs
&#127846;&#127846;0x1f366;95;0.630;0.143;0.255;0.602;0.459;0.459;0.15;SOFT ICE CREAM;Miscellaneous Symbols and Pictographs
&#127827;&#127827;0x1f353;94;0.689;0.041;0.247;0.711;0.670;0.670;0.11;STRAWBERRY;Miscellaneous Symbols and Pictographs
&#128071;&#128071;0x1f447;94;0.557;0.144;0.464;0.392;0.247;0.247;0.14;WHITE DOWN POINTING BACKHAND INDEX;Miscellaneous Symbols and Pictographs
&#128134;&#128134;0x1f486;92;0.814;0.263;0.253;0.484;0.221;0.221;0.17;FACE MASSAGE;Miscellaneous Symbols and Pictographs
&#127860;&#127860;0x1f374;92;0.580;0.053;0.358;0.589;0.537;0.537;0.12;FORK AND KNIFE;Miscellaneous Symbols and Pictographs
&#128551;&#128551;0x1f627;92;0.775;0.389;0.284;0.326;-0.063;-0.063;0.17;ANGUISHED FACE;Emoticons
&#127480;&#127480;0x1f1f8;91;0.655;0.096;0.298;0.606;0.511;0.511;0.14;REGIONAL INDICATOR SYMBOL LETTER S;Enclosed Alphanumeric Supplement
&#128558;&#128558;0x1f62e;90;0.774;0.183;0.366;0.452;0.269;0.269;0.15;FACE WITH OPEN MOUTH;Emoticons
&#9619;&#9619;0x2593;90;0.658;0.032;0.925;0.043;0.011;0.011;0.06;DARK SHADE;Block Elements
&#128683;&#128683;0x1f6ab;88;0.703;0.538;0.363;0.099;-0.440;-0.440;0.14;NO ENTRY SIGN;Transport and Map Symbols
&#128573;&#128573;0x1f63d;88;0.754;0.132;0.165;0.703;0.571;0.571;0.15;KISSING CAT FACE WITH CLOSED EYES;Emoticons
&#127752;&#127752;0x1f308;88;0.672;0.066;0.352;0.582;0.516;0.516;0.13;RAINBOW;Miscellaneous Symbols and Pictographs
&#128576;&#128576;0x1f640;88;0.791;0.165;0.341;0.495;0.330;0.330;0.16;WEARY CAT FACE;Emoticons
&#9888;&#9888;0x26a0;88;0.489;0.187;0.692;0.121;-0.066;-0.066;0.12;WARNING SIGN;Miscellaneous Symbols
&#127918;&#127918;0x1f3ae;86;0.467;0.101;0.371;0.528;0.427;0.427;0.14;VIDEO GAME;Miscellaneous Symbols and Pictographs
&#9583;&#9583;0x256f;84;0.507;0.230;0.552;0.218;-0.011;-0.011;0.14;BOX DRAWINGS LIGHT ARC UP AND LEFT;Box Drawing
&#127814;&#127814;0x1f346;84;0.719;0.080;0.437;0.483;0.402;0.402;0.14;AUBERGINE;Miscellaneous Symbols and Pictographs
&#127856;&#127856;0x1f370;84;0.783;0.161;0.230;0.609;0.448;0.448;0.16;SHORTCAKE;Miscellaneous Symbols and Pictographs
&#10003;&#10003;0x2713;84;0.628;0.115;0.483;0.402;0.287;0.287;0.14;CHECK MARK;Dingbats
&#128080;&#128080;0x1f450;83;0.876;0.395;0.233;0.372;-0.023;-0.023;0.19;OPEN HANDS SIGN;Miscellaneous Symbols and Pictographs
&#128583;&#128583;0x1f647;83;0.794;0.291;0.279;0.430;0.140;0.140;0.18;PERSON BOWING DEEPLY;Emoticons
&#127839;&#127839;0x1f35f;83;0.650;0.174;0.349;0.477;0.302;0.302;0.16;FRENCH FRIES;Miscellaneous Symbols and Pictographs
&#127820;&#127820;0x1f34c;82;0.541;0.129;0.306;0.565;0.435;0.435;0.15;BANANA;Miscellaneous Symbols and Pictographs
&#128145;&#128145;0x1f491;82;0.683;0.071;0.200;0.729;0.659;0.659;0.13;COUPLE WITH HEART;Miscellaneous Symbols and Pictographs
&#128108;&#128108;0x1f46c;82;0.622;0.353;0.353;0.294;-0.059;-0.059;0.17;TWO MEN HOLDING HANDS;Miscellaneous Symbols and Pictographs
&#128035;&#128035;0x1f423;81;0.776;0.155;0.214;0.631;0.476;0.476;0.16;HATCHING CHICK;Miscellaneous Symbols and Pictographs
&#127875;&#127875;0x1f383;81;0.724;0.083;0.238;0.679;0.595;0.595;0.14;JACK-O-LANTERN;Miscellaneous Symbols and Pictographs
&#9644;&#9644;0x25ac;81;0.335;0.012;0.512;0.476;0.464;0.464;0.11;BLACK RECTANGLE;Geometric Shapes
&#65532;&#65532;0xfffc;81;0.309;0.536;0.405;0.060;-0.476;-0.476;0.13;OBJECT REPLACEMENT CHARACTER;Specials
&#128543;&#128543;0x1f61f;80;0.824;0.349;0.229;0.422;0.072;0.072;0.19;WORRIED FACE;Emoticons
&#128062;&#128062;0x1f43e;78;0.739;0.111;0.173;0.716;0.605;0.605;0.15;PAW PRINTS;Miscellaneous Symbols and Pictographs
&#127891;&#127891;0x1f393;77;0.647;0.100;0.238;0.663;0.563;0.563;0.15;GRADUATION CAP;Miscellaneous Symbols and Pictographs
&#127946;&#127946;0x1f3ca;77;0.653;0.038;0.350;0.613;0.575;0.575;0.13;SWIMMER;Miscellaneous Symbols and Pictographs
&#127851;&#127851;0x1f36b;76;0.793;0.291;0.266;0.443;0.152;0.152;0.19;CHOCOLATE BAR;Miscellaneous Symbols and Pictographs
&#128247;&#128247;0x1f4f7;76;0.490;0.101;0.367;0.532;0.430;0.430;0.15;CAMERA;Miscellaneous Symbols and Pictographs
&#128068;&#128068;0x1f444;75;0.592;0.077;0.372;0.551;0.474;0.474;0.14;MOUTH;Miscellaneous Symbols and Pictographs
&#127804;&#127804;0x1f33c;74;0.604;0.026;0.169;0.805;0.779;0.779;0.11;BLOSSOM;Miscellaneous Symbols and Pictographs
&#128694;&#128694;0x1f6b6;74;0.797;0.377;0.390;0.234;-0.143;-0.143;0.18;PEDESTRIAN;Transport and Map Symbols
&#128049;&#128049;0x1f431;73;0.544;0.145;0.197;0.658;0.513;0.513;0.17;CAT FACE;Miscellaneous Symbols and Pictographs
&#9553;&#9553;0x2551;73;0.568;0.013;0.829;0.158;0.145;0.145;0.09;BOX DRAWINGS DOUBLE VERTICAL;Box Drawing
&#128056;&#128056;0x1f438;72;0.846;0.333;0.413;0.253;-0.080;-0.080;0.18;FROG FACE;Miscellaneous Symbols and Pictographs
&#127482;&#127482;0x1f1fa;71;0.683;0.122;0.216;0.662;0.541;0.541;0.16;REGIONAL INDICATOR SYMBOL LETTER U;Enclosed Alphanumeric Supplement
&#128127;&#128127;0x1f47f;70;0.911;0.658;0.219;0.123;-0.534;-0.534;0.16;IMP;Miscellaneous Symbols and Pictographs
&#128684;&#128684;0x1f6ac;70;0.805;0.123;0.233;0.644;0.521;0.521;0.17;SMOKING SYMBOL;Transport and Map Symbols
&#10047;&#10047;0x273f;70;0.499;0.041;0.534;0.425;0.384;0.384;0.13;BLACK FLORETTE;Dingbats
&#128214;&#128214;0x1f4d6;68;0.710;0.268;0.296;0.437;0.169;0.169;0.20;OPEN BOOK;Miscellaneous Symbols and Pictographs
&#128018;&#128018;0x1f412;68;0.640;0.028;0.423;0.549;0.521;0.521;0.13;MONKEY;Miscellaneous Symbols and Pictographs
&#127757;&#127757;0x1f30d;68;0.624;0.085;0.239;0.676;0.592;0.592;0.15;EARTH GLOBE EUROPE-AFRICA;Miscellaneous Symbols and Pictographs
&#9482;&#9482;0x250a;68;0.682;0.014;0.014;0.972;0.958;0.958;0.06;BOX DRAWINGS LIGHT QUADRUPLE DASH VERTICAL;Box Drawing
&#128037;&#128037;0x1f425;67;0.780;0.071;0.271;0.657;0.586;0.586;0.15;FRONT-FACING BABY CHICK;Miscellaneous Symbols and Pictographs
&#127744;&#127744;0x1f300;66;0.553;0.159;0.580;0.261;0.101;0.101;0.15;CYCLONE;Miscellaneous Symbols and Pictographs
&#128060;&#128060;0x1f43c;66;0.614;0.072;0.594;0.333;0.261;0.261;0.14;PANDA FACE;Miscellaneous Symbols and Pictographs
&#127909;&#127909;0x1f3a5;66;0.676;0.130;0.449;0.420;0.290;0.290;0.16;MOVIE CAMERA;Miscellaneous Symbols and Pictographs
&#128132;&#128132;0x1f484;66;0.637;0.101;0.362;0.536;0.435;0.435;0.16;LIPSTICK;Miscellaneous Symbols and Pictographs
&#128184;&#128184;0x1f4b8;66;0.790;0.246;0.348;0.406;0.159;0.159;0.19;MONEY WITH WINGS;Miscellaneous Symbols and Pictographs
&#9940;&#9940;0x26d4;65;0.406;0.088;0.338;0.574;0.485;0.485;0.16;NO ENTRY;Miscellaneous Symbols
&#9679;&#9679;0x25cf;65;0.561;0.132;0.559;0.309;0.176;0.176;0.16;BLACK CIRCLE;Geometric Shapes
&#127936;&#127936;0x1f3c0;64;0.807;0.209;0.328;0.463;0.254;0.254;0.19;BASKETBALL AND HOOP;Miscellaneous Symbols and Pictographs
&#128137;&#128137;0x1f489;64;0.750;0.179;0.284;0.537;0.358;0.358;0.19;SYRINGE;Miscellaneous Symbols and Pictographs
&#128159;&#128159;0x1f49f;63;0.788;0.061;0.197;0.742;0.682;0.682;0.14;HEART DECORATION;Miscellaneous Symbols and Pictographs
&#128663;&#128663;0x1f697;62;0.638;0.138;0.492;0.369;0.231;0.231;0.17;AUTOMOBILE;Transport and Map Symbols
&#128559;&#128559;0x1f62f;62;0.859;0.262;0.354;0.385;0.123;0.123;0.20;HUSHED FACE;Emoticons
&#128221;&#128221;0x1f4dd;62;0.795;0.138;0.492;0.369;0.231;0.231;0.17;MEMO;Miscellaneous Symbols and Pictographs
&#9552;&#9552;0x2550;62;0.441;0.015;0.954;0.031;0.015;0.015;0.05;BOX DRAWINGS DOUBLE HORIZONTAL;Box Drawing
&#9830;&#9830;0x2666;61;0.562;0.109;0.328;0.563;0.453;0.453;0.17;BLACK DIAMOND SUIT;Miscellaneous Symbols
&#128173;&#128173;0x1f4ad;60;0.688;0.175;0.444;0.381;0.206;0.206;0.18;THOUGHT BALLOON;Miscellaneous Symbols and Pictographs
&#127769;&#127769;0x1f319;58;0.669;0.066;0.279;0.656;0.590;0.590;0.16;CRESCENT MOON;Miscellaneous Symbols and Pictographs
&#128031;&#128031;0x1f41f;58;0.677;0.049;0.213;0.738;0.689;0.689;0.14;FISH;Miscellaneous Symbols and Pictographs
&#128099;&#128099;0x1f463;58;0.639;0.115;0.426;0.459;0.344;0.344;0.17;FOOTPRINTS;Miscellaneous Symbols and Pictographs
&#9758;&#9758;0x261e;58;0.725;0.016;0.852;0.131;0.115;0.115;0.09;WHITE RIGHT POINTING INDEX;Miscellaneous Symbols
&#9986;&#9986;0x2702;58;0.810;0.574;0.311;0.115;-0.459;-0.459;0.18;BLACK SCISSORS;Dingbats
&#128511;&#128511;0x1f5ff;58;0.942;0.098;0.361;0.541;0.443;0.443;0.17;MOYAI;Miscellaneous Symbols and Pictographs
&#127837;&#127837;0x1f35d;57;0.564;0.283;0.317;0.400;0.117;0.117;0.21;SPAGHETTI;Miscellaneous Symbols and Pictographs
&#128106;&#128106;0x1f46a;57;0.653;0.417;0.183;0.400;-0.017;-0.017;0.23;FAMILY;Miscellaneous Symbols and Pictographs
&#127853;&#127853;0x1f36d;57;0.633;0.167;0.367;0.467;0.300;0.300;0.19;LOLLIPOP;Miscellaneous Symbols and Pictographs
&#127747;&#127747;0x1f303;56;0.748;0.068;0.475;0.458;0.390;0.390;0.16;NIGHT WITH STARS;Miscellaneous Symbols and Pictographs
&#10060;&#10060;0x274c;56;0.613;0.254;0.220;0.525;0.271;0.271;0.22;CROSS MARK;Dingbats
&#128048;&#128048;0x1f430;55;0.708;0.086;0.241;0.672;0.586;0.586;0.17;RABBIT FACE;Miscellaneous Symbols and Pictographs
&#128138;&#128138;0x1f48a;55;0.675;0.155;0.259;0.586;0.431;0.431;0.20;PILL;Miscellaneous Symbols and Pictographs
&#128680;&#128680;0x1f6a8;55;0.521;0.121;0.121;0.759;0.638;0.638;0.18;POLICE CARS REVOLVING LIGHT;Transport and Map Symbols
&#128550;&#128550;0x1f626;54;0.882;0.544;0.281;0.175;-0.368;-0.368;0.20;FROWNING FACE WITH OPEN MOUTH;Emoticons
&#127850;&#127850;0x1f36a;54;0.737;0.193;0.298;0.509;0.316;0.316;0.21;COOKIE;Miscellaneous Symbols and Pictographs
&#127843;&#127843;0x1f363;53;0.670;0.446;0.339;0.214;-0.232;-0.232;0.21;SUSHI;Miscellaneous Symbols and Pictographs
&#9581;&#9581;0x256d;53;0.490;0.071;0.696;0.232;0.161;0.161;0.14;BOX DRAWINGS LIGHT ARC DOWN AND RIGHT;Box Drawing
&#10023;&#10023;0x2727;53;0.399;0.036;0.607;0.357;0.321;0.321;0.14;WHITE FOUR POINTED STAR;Dingbats
&#127878;&#127878;0x1f386;52;0.799;0.055;0.182;0.764;0.709;0.709;0.15;FIREWORKS;Miscellaneous Symbols and Pictographs
&#9582;&#9582;0x256e;52;0.423;0.109;0.655;0.236;0.127;0.127;0.16;BOX DRAWINGS LIGHT ARC DOWN AND LEFT;Box Drawing
&#127886;&#127886;0x1f38e;51;0.417;0.019;0.056;0.926;0.907;0.907;0.10;JAPANESE DOLLS;Miscellaneous Symbols and Pictographs
&#127465;&#127465;0x1f1e9;51;0.745;0.037;0.315;0.648;0.611;0.611;0.15;REGIONAL INDICATOR SYMBOL LETTER D;Enclosed Alphanumeric Supplement
&#9989;&#9989;0x2705;51;0.673;0.074;0.444;0.481;0.407;0.407;0.17;WHITE HEAVY CHECK MARK;Dingbats
&#128121;&#128121;0x1f479;49;0.701;0.269;0.404;0.327;0.058;0.058;0.22;JAPANESE OGRE;Miscellaneous Symbols and Pictographs
&#128241;&#128241;0x1f4f1;49;0.720;0.096;0.500;0.404;0.308;0.308;0.18;MOBILE PHONE;Miscellaneous Symbols and Pictographs
&#128589;&#128589;0x1f64d;49;0.845;0.577;0.173;0.250;-0.327;-0.327;0.24;PERSON FROWNING;Emoticons
&#127825;&#127825;0x1f351;49;0.739;0.250;0.250;0.500;0.250;0.250;0.23;PEACH;Miscellaneous Symbols and Pictographs
&#127932;&#127932;0x1f3bc;49;0.636;0.058;0.558;0.385;0.327;0.327;0.16;MUSICAL SCORE;Miscellaneous Symbols and Pictographs
&#128266;&#128266;0x1f50a;49;0.652;0.096;0.404;0.500;0.404;0.404;0.18;SPEAKER WITH THREE SOUND WAVES;Miscellaneous Symbols and Pictographs
&#127756;&#127756;0x1f30c;47;0.751;0.120;0.240;0.640;0.520;0.520;0.20;MILKY WAY;Miscellaneous Symbols and Pictographs
&#127822;&#127822;0x1f34e;47;0.751;0.140;0.400;0.460;0.320;0.320;0.20;RED APPLE;Miscellaneous Symbols and Pictographs
&#128059;&#128059;0x1f43b;47;0.692;0.140;0.280;0.580;0.440;0.440;0.21;BEAR FACE;Miscellaneous Symbols and Pictographs
&#9472;&#9472;0x2500;47;0.711;0.020;0.820;0.160;0.140;0.140;0.11;BOX DRAWINGS LIGHT HORIZONTAL;Box Drawing
&#9584;&#9584;0x2570;47;0.510;0.160;0.740;0.100;-0.060;-0.060;0.14;BOX DRAWINGS LIGHT ARC UP AND RIGHT;Box Drawing
&#128135;&#128135;0x1f487;46;0.678;0.163;0.347;0.490;0.327;0.327;0.21;HAIRCUT;Miscellaneous Symbols and Pictographs
&#9836;&#9836;0x266c;46;0.677;0.102;0.551;0.347;0.245;0.245;0.18;BEAMED SIXTEENTH NOTES;Miscellaneous Symbols
&#9818;&#9818;0x265a;46;0.389;0.020;0.918;0.061;0.041;0.041;0.08;BLACK CHESS KING;Miscellaneous Symbols
&#128308;&#128308;0x1f534;45;0.656;0.042;0.521;0.438;0.396;0.396;0.17;LARGE RED CIRCLE;Miscellaneous Symbols and Pictographs
&#127857;&#127857;0x1f371;45;0.580;0.542;0.229;0.229;-0.313;-0.313;0.24;BENTO BOX;Miscellaneous Symbols and Pictographs
&#127818;&#127818;0x1f34a;45;0.697;0.146;0.292;0.563;0.417;0.417;0.21;TANGERINE;Miscellaneous Symbols and Pictographs
&#127826;&#127826;0x1f352;45;0.619;0.146;0.396;0.458;0.313;0.313;0.21;CHERRIES;Miscellaneous Symbols and Pictographs
&#128045;&#128045;0x1f42d;45;0.823;0.021;0.271;0.708;0.688;0.688;0.15;MOUSE FACE;Miscellaneous Symbols and Pictographs
&#128095;&#128095;0x1f45f;45;0.562;0.125;0.333;0.542;0.417;0.417;0.21;ATHLETIC SHOE;Miscellaneous Symbols and Pictographs
&#127758;&#127758;0x1f30e;44;0.743;0.128;0.426;0.447;0.319;0.319;0.20;EARTH GLOBE AMERICAS;Miscellaneous Symbols and Pictographs
&#127821;&#127821;0x1f34d;44;0.583;0.170;0.191;0.638;0.468;0.468;0.23;PINEAPPLE;Miscellaneous Symbols and Pictographs
&#128046;&#128046;0x1f42e;43;0.847;0.065;0.283;0.652;0.587;0.587;0.18;COW FACE;Miscellaneous Symbols and Pictographs
&#128242;&#128242;0x1f4f2;43;0.598;0.174;0.413;0.413;0.239;0.239;0.22;MOBILE PHONE WITH RIGHTWARDS ARROW AT LEFT;Miscellaneous Symbols and Pictographs
&#9788;&#9788;0x263c;43;0.461;0.065;0.674;0.261;0.196;0.196;0.16;WHITE SUN WITH RAYS;Miscellaneous Symbols
&#127749;&#127749;0x1f305;42;0.604;0.156;0.333;0.511;0.356;0.356;0.22;SUNRISE;Miscellaneous Symbols and Pictographs
&#127479;&#127479;0x1f1f7;42;0.716;0.044;0.244;0.711;0.667;0.667;0.17;REGIONAL INDICATOR SYMBOL LETTER R;Enclosed Alphanumeric Supplement
&#128096;&#128096;0x1f460;42;0.637;0.156;0.333;0.511;0.356;0.356;0.22;HIGH-HEELED SHOE;Miscellaneous Symbols and Pictographs
&#127805;&#127805;0x1f33d;42;0.649;0.133;0.289;0.578;0.444;0.444;0.22;EAR OF MAIZE;Miscellaneous Symbols and Pictographs
&#128167;&#128167;0x1f4a7;41;0.768;0.477;0.205;0.318;-0.159;-0.159;0.27;DROPLET;Miscellaneous Symbols and Pictographs
&#10067;&#10067;0x2753;41;0.615;0.182;0.568;0.250;0.068;0.068;0.20;BLACK QUESTION MARK ORNAMENT;Dingbats
&#127852;&#127852;0x1f36c;41;0.784;0.205;0.227;0.568;0.364;0.364;0.24;CANDY;Miscellaneous Symbols and Pictographs
&#128570;&#128570;0x1f63a;40;0.826;0.209;0.186;0.605;0.395;0.395;0.25;SMILING CAT FACE WITH OPEN MOUTH;Emoticons
&#128052;&#128052;0x1f434;40;0.796;0.209;0.512;0.279;0.070;0.070;0.22;HORSE FACE;Miscellaneous Symbols and Pictographs
&#128640;&#128640;0x1f680;40;0.698;0.070;0.372;0.558;0.488;0.488;0.19;ROCKET;Transport and Map Symbols
&#166;&#166;0xa6;40;0.402;0.186;0.047;0.767;0.581;0.581;0.24;BROKEN BAR;Latin-1 Supplement
&#128162;&#128162;0x1f4a2;40;0.561;0.163;0.442;0.395;0.233;0.233;0.22;ANGER SYMBOL;Miscellaneous Symbols and Pictographs
&#127916;&#127916;0x1f3ac;40;0.650;0.070;0.581;0.349;0.279;0.279;0.18;CLAPPER BOARD;Miscellaneous Symbols and Pictographs
&#127847;&#127847;0x1f367;40;0.675;0.233;0.233;0.535;0.302;0.302;0.25;SHAVED ICE;Miscellaneous Symbols and Pictographs
&#127836;&#127836;0x1f35c;40;0.578;0.233;0.140;0.628;0.395;0.395;0.26;STEAMING BOWL;Miscellaneous Symbols and Pictographs
&#128015;&#128015;0x1f40f;40;0.976;0.070;0.302;0.628;0.558;0.558;0.19;RAM;Miscellaneous Symbols and Pictographs
&#128024;&#128024;0x1f418;40;0.722;0.233;0.512;0.256;0.023;0.023;0.22;ELEPHANT;Miscellaneous Symbols and Pictographs
&#128103;&#128103;0x1f467;40;0.649;0.256;0.349;0.395;0.140;0.140;0.25;GIRL;Miscellaneous Symbols and Pictographs
&#10240;&#10240;0x2800;40;0.378;0.163;0.628;0.209;0.047;0.047;0.19;BRAILLE PATTERN BLANK;Braille Patterns
&#127940;&#127940;0x1f3c4;39;0.773;0.071;0.333;0.595;0.524;0.524;0.20;SURFER;Miscellaneous Symbols and Pictographs
&#10148;&#10148;0x27a4;39;0.382;0.024;0.643;0.333;0.310;0.310;0.16;BLACK RIGHTWARDS ARROWHEAD;Dingbats
&#11014;&#11014;0x2b06;39;0.606;0.048;0.619;0.333;0.286;0.286;0.17;UPWARDS BLACK ARROW;Miscellaneous Symbols and Arrows
&#127819;&#127819;0x1f34b;38;0.743;0.171;0.415;0.415;0.244;0.244;0.23;LEMON;Miscellaneous Symbols and Pictographs
&#127383;&#127383;0x1f197;38;0.852;0.171;0.122;0.707;0.537;0.537;0.24;SQUARED OK;Enclosed Alphanumeric Supplement
&#9898;&#9898;0x26aa;37;0.565;0.025;0.500;0.475;0.450;0.450;0.18;MEDIUM WHITE CIRCLE;Miscellaneous Symbols
&#128250;&#128250;0x1f4fa;37;0.614;0.100;0.425;0.475;0.375;0.375;0.21;TELEVISION;Miscellaneous Symbols and Pictographs
&#127813;&#127813;0x1f345;37;0.838;0.250;0.150;0.600;0.350;0.350;0.27;TOMATO;Miscellaneous Symbols and Pictographs
&#9925;&#9925;0x26c5;37;0.616;0.125;0.300;0.575;0.450;0.450;0.23;SUN BEHIND CLOUD;Miscellaneous Symbols
&#128034;&#128034;0x1f422;37;0.622;0.175;0.450;0.375;0.200;0.200;0.23;TURTLE;Miscellaneous Symbols and Pictographs
&#128089;&#128089;0x1f459;37;0.697;0.100;0.300;0.600;0.500;0.500;0.22;BIKINI;Miscellaneous Symbols and Pictographs
&#127969;&#127969;0x1f3e1;36;0.744;0.154;0.256;0.590;0.436;0.436;0.24;HOUSE WITH GARDEN;Miscellaneous Symbols and Pictographs
&#127806;&#127806;0x1f33e;36;0.558;0.154;0.154;0.692;0.538;0.538;0.24;EAR OF RICE;Miscellaneous Symbols and Pictographs
&#9673;&#9673;0x25c9;36;0.047;0.026;0.692;0.282;0.256;0.256;0.16;FISHEYE;Geometric Shapes
&#9999;&#9999;0x270f;35;0.625;0.105;0.447;0.447;0.342;0.342;0.22;PENCIL;Dingbats
&#128044;&#128044;0x1f42c;35;0.747;0.079;0.421;0.500;0.421;0.421;0.21;DOLPHIN;Miscellaneous Symbols and Pictographs
&#127844;&#127844;0x1f364;35;0.513;0.184;0.579;0.237;0.053;0.053;0.21;FRIED SHRIMP;Miscellaneous Symbols and Pictographs
&#127481;&#127481;0x1f1f9;35;0.584;0.026;0.368;0.605;0.579;0.579;0.18;REGIONAL INDICATOR SYMBOL LETTER T;Enclosed Alphanumeric Supplement
&#9827;&#9827;0x2663;35;0.666;0.132;0.395;0.474;0.342;0.342;0.23;BLACK CLUB SUIT;Miscellaneous Symbols
&#128029;&#128029;0x1f41d;35;0.735;0.158;0.474;0.368;0.211;0.211;0.23;HONEYBEE;Miscellaneous Symbols and Pictographs
&#127773;&#127773;0x1f31d;34;0.718;0.162;0.486;0.351;0.189;0.189;0.23;FULL MOON WITH FACE;Miscellaneous Symbols and Pictographs
&#127470;&#127470;0x1f1ee;34;0.576;0.027;0.351;0.622;0.595;0.595;0.18;REGIONAL INDICATOR SYMBOL LETTER I;Enclosed Alphanumeric Supplement
&#128267;&#128267;0x1f50b;34;0.583;0.622;0.243;0.135;-0.486;-0.486;0.24;BATTERY;Miscellaneous Symbols and Pictographs
&#128013;&#128013;0x1f40d;34;0.623;0.108;0.432;0.459;0.351;0.351;0.22;SNAKE;Miscellaneous Symbols and Pictographs
&#9812;&#9812;0x2654;34;0.589;0.027;0.405;0.568;0.541;0.541;0.18;WHITE CHESS KING;Miscellaneous Symbols
&#127859;&#127859;0x1f373;33;0.798;0.389;0.194;0.417;0.028;0.028;0.31;COOKING;Miscellaneous Symbols and Pictographs
&#128309;&#128309;0x1f535;33;0.681;0.139;0.417;0.444;0.306;0.306;0.24;LARGE BLUE CIRCLE;Miscellaneous Symbols and Pictographs
&#128574;&#128574;0x1f63e;33;0.915;0.583;0.167;0.250;-0.333;-0.333;0.29;POUTING CAT FACE;Emoticons
&#127765;&#127765;0x1f315;33;0.642;0.111;0.222;0.667;0.556;0.556;0.23;FULL MOON SYMBOL;Miscellaneous Symbols and Pictographs
&#128040;&#128040;0x1f428;33;0.696;0.139;0.278;0.583;0.444;0.444;0.25;KOALA;Miscellaneous Symbols and Pictographs
&#128272;&#128272;0x1f510;33;0.845;0.194;0.278;0.528;0.333;0.333;0.27;CLOSED LOCK WITH KEY;Miscellaneous Symbols and Pictographs
&#128191;&#128191;0x1f4bf;33;0.444;0.028;0.333;0.639;0.611;0.611;0.18;OPTICAL DISC;Miscellaneous Symbols and Pictographs
&#10049;&#10049;0x2741;33;0.493;0.028;0.889;0.083;0.056;0.056;0.11;EIGHT PETALLED OUTLINED BLACK FLORETTE;Dingbats
&#127795;&#127795;0x1f333;32;0.536;0.086;0.343;0.571;0.486;0.486;0.22;DECIDUOUS TREE;Miscellaneous Symbols and Pictographs
&#128112;&#128112;0x1f470;32;0.787;0.114;0.286;0.600;0.486;0.486;0.24;BRIDE WITH VEIL;Miscellaneous Symbols and Pictographs
&#10048;&#10048;0x2740;32;0.444;0.029;0.543;0.429;0.400;0.400;0.19;WHITE FLORETTE;Dingbats
&#9875;&#9875;0x2693;32;0.593;0.086;0.257;0.657;0.571;0.571;0.22;ANCHOR;Miscellaneous Symbols
&#128692;&#128692;0x1f6b4;32;0.573;0.029;0.286;0.686;0.657;0.657;0.18;BICYCLIST;Transport and Map Symbols
&#9600;&#9600;0x2580;32;0.250;0.314;0.514;0.171;-0.143;-0.143;0.24;UPPER HALF BLOCK;Block Elements
&#128087;&#128087;0x1f457;31;0.703;0.176;0.412;0.412;0.235;0.235;0.26;DRESS;Miscellaneous Symbols and Pictographs
&#10133;&#10133;0x2795;31;0.034;0.147;0.176;0.676;0.529;0.529;0.26;HEAVY PLUS SIGN;Dingbats
&#128172;&#128172;0x1f4ac;30;0.635;0.152;0.333;0.515;0.364;0.364;0.26;SPEECH BALLOON;Miscellaneous Symbols and Pictographs
&#9618;&#9618;0x2592;30;0.501;0.091;0.848;0.061;-0.030;-0.030;0.14;MEDIUM SHADE;Block Elements
&#128284;&#128284;0x1f51c;30;0.606;0.182;0.364;0.455;0.273;0.273;0.27;SOON WITH RIGHTWARDS ARROW ABOVE;Miscellaneous Symbols and Pictographs
&#127848;&#127848;0x1f368;30;0.657;0.273;0.242;0.485;0.212;0.212;0.30;ICE CREAM;Miscellaneous Symbols and Pictographs
&#128178;&#128178;0x1f4b2;30;0.794;0.030;0.697;0.273;0.242;0.242;0.18;HEAVY DOLLAR SIGN;Miscellaneous Symbols and Pictographs
&#9981;&#9981;0x26fd;30;0.287;0.061;0.727;0.212;0.152;0.152;0.18;FUEL PUMP;Miscellaneous Symbols
&#127833;&#127833;0x1f359;29;0.566;0.188;0.344;0.469;0.281;0.281;0.28;RICE BALL;Miscellaneous Symbols and Pictographs
&#127831;&#127831;0x1f357;29;0.675;0.313;0.313;0.375;0.063;0.063;0.30;POULTRY LEG;Miscellaneous Symbols and Pictographs
&#127858;&#127858;0x1f372;29;0.673;0.250;0.375;0.375;0.125;0.125;0.28;POT OF FOOD;Miscellaneous Symbols and Pictographs
&#127845;&#127845;0x1f365;29;0.580;0.719;0.156;0.125;-0.594;-0.594;0.26;FISH CAKE WITH SWIRL DESIGN;Miscellaneous Symbols and Pictographs
&#9656;&#9656;0x25b8;29;0.517;0.031;0.719;0.250;0.219;0.219;0.18;BLACK RIGHT-POINTING SMALL TRIANGLE;Geometric Shapes
&#9819;&#9819;0x265b;29;0.490;0.156;0.500;0.344;0.188;0.188;0.25;BLACK CHESS QUEEN;Miscellaneous Symbols
&#128572;&#128572;0x1f63c;28;0.856;0.194;0.258;0.548;0.355;0.355;0.29;CAT FACE WITH WRY SMILE;Emoticons
&#128025;&#128025;0x1f419;28;0.678;0.097;0.419;0.484;0.387;0.387;0.24;OCTOPUS;Miscellaneous Symbols and Pictographs
&#128104;&#128104;0x1f468;28;0.694;0.097;0.290;0.613;0.516;0.516;0.25;MAN;Miscellaneous Symbols and Pictographs
&#127834;&#127834;0x1f35a;28;0.637;0.226;0.097;0.677;0.452;0.452;0.31;COOKED RICE;Miscellaneous Symbols and Pictographs
&#127830;&#127830;0x1f356;28;0.679;0.258;0.355;0.387;0.129;0.129;0.29;MEAT ON BONE;Miscellaneous Symbols and Pictographs
&#9832;&#9832;0x2668;28;0.665;0.032;0.065;0.903;0.871;0.871;0.16;HOT SPRINGS;Miscellaneous Symbols
&#127929;&#127929;0x1f3b9;28;0.466;0.032;0.581;0.387;0.355;0.355;0.20;MUSICAL KEYBOARD;Miscellaneous Symbols and Pictographs
&#9813;&#9813;0x2655;28;0.621;0.032;0.548;0.419;0.387;0.387;0.20;WHITE CHESS QUEEN;Miscellaneous Symbols
&#9603;&#9603;0x2583;28;0.373;0.032;0.032;0.935;0.903;0.903;0.14;LOWER THREE EIGHTHS BLOCK;Block Elements
&#128664;&#128664;0x1f698;27;0.650;0.300;0.333;0.367;0.067;0.067;0.31;ONCOMING AUTOMOBILE;Transport and Map Symbols
&#127823;&#127823;0x1f34f;27;0.852;0.267;0.400;0.333;0.067;0.067;0.29;GREEN APPLE;Miscellaneous Symbols and Pictographs
&#128105;&#128105;0x1f469;27;0.732;0.333;0.267;0.400;0.067;0.067;0.32;WOMAN;Miscellaneous Symbols and Pictographs
&#128102;&#128102;0x1f466;27;0.606;0.200;0.467;0.333;0.133;0.133;0.27;BOY;Miscellaneous Symbols and Pictographs
&#127468;&#127468;0x1f1ec;27;0.582;0.100;0.533;0.367;0.267;0.267;0.24;REGIONAL INDICATOR SYMBOL LETTER G;Enclosed Alphanumeric Supplement
&#127463;&#127463;0x1f1e7;27;0.595;0.100;0.533;0.367;0.267;0.267;0.24;REGIONAL INDICATOR SYMBOL LETTER B;Enclosed Alphanumeric Supplement
&#9760;&#9760;0x2620;27;0.749;0.267;0.500;0.233;-0.033;-0.033;0.27;SKULL AND CROSSBONES;Miscellaneous Symbols
&#128032;&#128032;0x1f420;26;0.768;0.172;0.241;0.586;0.414;0.414;0.29;TROPICAL FISH;Miscellaneous Symbols and Pictographs
&#128697;&#128697;0x1f6b9;26;0.812;0.069;0.172;0.759;0.690;0.690;0.23;MENS SYMBOL;Transport and Map Symbols
&#128181;&#128181;0x1f4b5;26;0.807;0.138;0.345;0.517;0.379;0.379;0.27;BANKNOTE WITH DOLLAR SIGN;Miscellaneous Symbols and Pictographs
&#10032;&#10032;0x2730;26;0.195;0.034;0.138;0.828;0.793;0.793;0.19;SHADOWED WHITE STAR;Dingbats
&#9568;&#9568;0x2560;26;0.543;0.034;0.724;0.241;0.207;0.207;0.19;BOX DRAWINGS DOUBLE VERTICAL AND RIGHT;Box Drawing
&#128091;&#128091;0x1f45b;25;0.696;0.179;0.286;0.536;0.357;0.357;0.30;PURSE;Miscellaneous Symbols and Pictographs
&#128665;&#128665;0x1f699;25;0.653;0.214;0.536;0.250;0.036;0.036;0.27;RECREATIONAL VEHICLE;Transport and Map Symbols
&#127793;&#127793;0x1f331;25;0.561;0.036;0.357;0.607;0.571;0.571;0.22;SEEDLING;Miscellaneous Symbols and Pictographs
&#128187;&#128187;0x1f4bb;25;0.489;0.071;0.607;0.321;0.250;0.250;0.23;PERSONAL COMPUTER;Miscellaneous Symbols and Pictographs
&#127759;&#127759;0x1f30f;25;0.681;0.143;0.393;0.464;0.321;0.321;0.28;EARTH GLOBE ASIA-AUSTRALIA;Miscellaneous Symbols and Pictographs
&#9604;&#9604;0x2584;25;0.464;0.321;0.429;0.250;-0.071;-0.071;0.29;LOWER HALF BLOCK;Block Elements
&#128083;&#128083;0x1f453;24;0.514;0.037;0.630;0.333;0.296;0.296;0.21;EYEGLASSES;Miscellaneous Symbols and Pictographs
&#9668;&#9668;0x25c4;24;0.672;0.037;0.704;0.259;0.222;0.222;0.20;BLACK LEFT-POINTING POINTER;Geometric Shapes
&#9918;&#9918;0x26be;24;0.214;0.370;0.296;0.333;-0.037;-0.037;0.34;BASEBALL;Miscellaneous Symbols
&#127794;&#127794;0x1f332;23;0.496;0.115;0.385;0.500;0.385;0.385;0.28;EVERGREEN TREE;Miscellaneous Symbols and Pictographs
&#128116;&#128116;0x1f474;23;0.784;0.231;0.308;0.462;0.231;0.231;0.33;OLDER MAN;Miscellaneous Symbols and Pictographs
&#127968;&#127968;0x1f3e0;23;0.642;0.077;0.346;0.577;0.500;0.500;0.26;HOUSE BUILDING;Miscellaneous Symbols and Pictographs
&#127815;&#127815;0x1f347;23;0.584;0.231;0.269;0.500;0.269;0.269;0.33;GRAPES;Miscellaneous Symbols and Pictographs
&#127832;&#127832;0x1f358;23;0.621;0.231;0.154;0.615;0.385;0.385;0.34;RICE CRACKER;Miscellaneous Symbols and Pictographs
&#127835;&#127835;0x1f35b;23;0.585;0.346;0.269;0.385;0.038;0.038;0.35;CURRY AND RICE;Miscellaneous Symbols and Pictographs
&#128007;&#128007;0x1f407;23;0.967;0.192;0.385;0.423;0.231;0.231;0.31;RABBIT;Miscellaneous Symbols and Pictographs
&#128286;&#128286;0x1f51e;23;0.814;0.269;0.500;0.231;-0.038;-0.038;0.29;NO ONE UNDER EIGHTEEN SYMBOL;Miscellaneous Symbols and Pictographs
&#128117;&#128117;0x1f475;23;0.818;0.231;0.115;0.654;0.423;0.423;0.34;OLDER WOMAN;Miscellaneous Symbols and Pictographs
&#9664;&#9664;0x25c0;23;0.221;0.038;0.654;0.308;0.269;0.269;0.21;BLACK LEFT-POINTING TRIANGLE;Geometric Shapes
&#128281;&#128281;0x1f519;23;0.144;0.115;0.577;0.308;0.192;0.192;0.25;BACK WITH LEFTWARDS ARROW ABOVE;Miscellaneous Symbols and Pictographs
&#127797;&#127797;0x1f335;23;0.670;0.269;0.269;0.462;0.192;0.192;0.34;CACTUS;Miscellaneous Symbols and Pictographs
&#128061;&#128061;0x1f43d;22;0.648;0.240;0.400;0.360;0.120;0.120;0.32;PIG NOSE;Miscellaneous Symbols and Pictographs
&#127854;&#127854;0x1f36e;22;0.701;0.440;0.240;0.320;-0.120;-0.120;0.36;CUSTARD;Miscellaneous Symbols and Pictographs
&#127879;&#127879;0x1f387;22;0.821;0.080;0.160;0.760;0.680;0.680;0.26;FIREWORK SPARKLER;Miscellaneous Symbols and Pictographs
&#128014;&#128014;0x1f40e;22;0.698;0.120;0.360;0.520;0.400;0.400;0.29;HORSE;Miscellaneous Symbols and Pictographs
&#10132;&#10132;0x2794;22;0.541;0.160;0.800;0.040;-0.120;-0.120;0.18;HEAVY WIDE-HEADED RIGHTWARDS ARROW;Dingbats
&#128182;&#128182;0x1f4b6;22;0.748;0.160;0.680;0.160;0.000;0.000;0.24;BANKNOTE WITH EURO SIGN;Miscellaneous Symbols and Pictographs
&#128036;&#128036;0x1f424;22;0.838;0.080;0.320;0.600;0.520;0.520;0.27;BABY CHICK;Miscellaneous Symbols and Pictographs
&#9577;&#9577;0x2569;22;0.811;0.040;0.720;0.240;0.200;0.200;0.20;BOX DRAWINGS DOUBLE UP AND HORIZONTAL;Box Drawing
&#128704;&#128704;0x1f6c0;21;0.904;0.292;0.292;0.417;0.125;0.125;0.36;BATH;Transport and Map Symbols
&#127761;&#127761;0x1f311;21;0.604;0.125;0.292;0.583;0.458;0.458;0.30;NEW MOON SYMBOL;Miscellaneous Symbols and Pictographs
&#128690;&#128690;0x1f6b2;21;0.583;0.083;0.458;0.458;0.375;0.375;0.27;BICYCLE;Transport and Map Symbols
&#128017;&#128017;0x1f411;21;0.922;0.292;0.583;0.125;-0.167;-0.167;0.27;SHEEP;Miscellaneous Symbols and Pictographs
&#127937;&#127937;0x1f3c1;21;0.618;0.042;0.417;0.542;0.500;0.500;0.25;CHEQUERED FLAG;Miscellaneous Symbols and Pictographs
&#127838;&#127838;0x1f35e;21;0.711;0.292;0.375;0.333;0.042;0.042;0.34;BREAD;Miscellaneous Symbols and Pictographs
&#127934;&#127934;0x1f3be;21;0.820;0.125;0.208;0.667;0.542;0.542;0.30;TENNIS RACQUET AND BALL;Miscellaneous Symbols and Pictographs
&#9562;&#9562;0x255a;21;0.714;0.042;0.625;0.333;0.292;0.292;0.23;BOX DRAWINGS DOUBLE UP AND RIGHT;Box Drawing
&#127545;&#127545;0x1f239;21;0.350;0.083;0.542;0.375;0.292;0.292;0.26;SQUARED CJK UNIFIED IDEOGRAPH-5272;Enclosed Ideographic Supplement
&#128051;&#128051;0x1f433;20;0.656;0.217;0.435;0.348;0.130;0.130;0.32;SPOUTING WHALE;Miscellaneous Symbols and Pictographs
&#128110;&#128110;0x1f46e;20;0.742;0.478;0.391;0.130;-0.348;-0.348;0.31;POLICE OFFICER;Miscellaneous Symbols and Pictographs
&#9785;&#9785;0x2639;20;0.777;0.652;0.217;0.130;-0.522;-0.522;0.31;WHITE FROWNING FACE;Miscellaneous Symbols
&#128053;&#128053;0x1f435;20;0.631;0.087;0.348;0.565;0.478;0.478;0.29;MONKEY FACE;Miscellaneous Symbols and Pictographs
&#10026;&#10026;0x272a;20;0.288;0.043;0.609;0.348;0.304;0.304;0.24;CIRCLED WHITE STAR;Dingbats
&#9685;&#9685;0x25d5;20;0.594;0.043;0.478;0.478;0.435;0.435;0.25;CIRCLE WITH ALL BUT UPPER LEFT QUADRANT BLACK;Geometric Shapes
&#128508;&#128508;0x1f5fc;20;0.654;0.087;0.304;0.609;0.522;0.522;0.29;TOKYO TOWER;Miscellaneous Symbols and Pictographs
&#9616;&#9616;0x2590;20;0.304;0.217;0.696;0.087;-0.130;-0.130;0.23;RIGHT HALF BLOCK;Block Elements
&#9824;&#9824;0x2660;20;0.533;0.043;0.609;0.348;0.304;0.304;0.24;BLACK SPADE SUIT;Miscellaneous Symbols
&#9523;&#9523;0x2533;20;0.399;0.478;0.391;0.130;-0.348;-0.348;0.31;BOX DRAWINGS HEAVY DOWN AND HORIZONTAL;Box Drawing
&#128122;&#128122;0x1f47a;19;0.825;0.409;0.364;0.227;-0.182;-0.182;0.35;JAPANESE GOBLIN;Miscellaneous Symbols and Pictographs
&#128026;&#128026;0x1f41a;19;0.526;0.091;0.591;0.318;0.227;0.227;0.27;SPIRAL SHELL;Miscellaneous Symbols and Pictographs
&#128066;&#128066;0x1f442;19;0.682;0.364;0.409;0.227;-0.136;-0.136;0.34;EAR;Miscellaneous Symbols and Pictographs
&#128509;&#128509;0x1f5fd;19;0.651;0.091;0.500;0.409;0.318;0.318;0.28;STATUE OF LIBERTY;Miscellaneous Symbols and Pictographs
&#127861;&#127861;0x1f375;19;0.650;0.182;0.273;0.545;0.364;0.364;0.35;TEACUP WITHOUT HANDLE;Miscellaneous Symbols and Pictographs
&#127378;&#127378;0x1f192;19;0.628;0.045;0.545;0.409;0.364;0.364;0.26;SQUARED COOL;Enclosed Alphanumeric Supplement
&#127855;&#127855;0x1f36f;19;0.780;0.364;0.227;0.409;0.045;0.045;0.39;HONEY POT;Miscellaneous Symbols and Pictographs
&#128058;&#128058;0x1f43a;19;0.735;0.136;0.500;0.364;0.227;0.227;0.30;WOLF FACE;Miscellaneous Symbols and Pictographs
&#8680;&#8680;0x21e8;19;0.541;0.045;0.455;0.500;0.455;0.455;0.26;RIGHTWARDS WHITE ARROW;Arrows
&#10152;&#10152;0x27a8;19;0.558;0.136;0.591;0.273;0.136;0.136;0.28;HEAVY CONCAVE-POINTED BLACK RIGHTWARDS ARROW;Dingbats
&#127763;&#127763;0x1f313;19;0.458;0.045;0.318;0.636;0.591;0.591;0.26;FIRST QUARTER MOON SYMBOL;Miscellaneous Symbols and Pictographs
&#128274;&#128274;0x1f512;19;0.939;0.273;0.273;0.455;0.182;0.182;0.37;LOCK;Miscellaneous Symbols and Pictographs
&#9580;&#9580;0x256c;19;0.322;0.318;0.500;0.182;-0.136;-0.136;0.31;BOX DRAWINGS DOUBLE VERTICAL AND HORIZONTAL;Box Drawing
&#128115;&#128115;0x1f473;18;0.816;0.143;0.095;0.762;0.619;0.619;0.33;MAN WITH TURBAN;Miscellaneous Symbols and Pictographs
&#127746;&#127746;0x1f302;18;0.785;0.143;0.476;0.381;0.238;0.238;0.32;CLOSED UMBRELLA;Miscellaneous Symbols and Pictographs
&#128652;&#128652;0x1f68c;18;0.636;0.143;0.524;0.333;0.190;0.190;0.31;BUS;Transport and Map Symbols
&#9833;&#9833;0x2669;18;0.792;0.048;0.381;0.571;0.524;0.524;0.27;QUARTER NOTE;Miscellaneous Symbols
&#127841;&#127841;0x1f361;18;0.700;0.286;0.476;0.238;-0.048;-0.048;0.33;DANGO;Miscellaneous Symbols and Pictographs
&#10085;&#10085;0x2765;18;0.440;0.048;0.667;0.286;0.238;0.238;0.24;ROTATED HEAVY BLACK HEART BULLET;Dingbats
&#127905;&#127905;0x1f3a1;18;0.506;0.095;0.524;0.381;0.286;0.286;0.29;FERRIS WHEEL;Miscellaneous Symbols and Pictographs
&#128140;&#128140;0x1f48c;17;0.805;0.150;0.200;0.650;0.500;0.500;0.35;LOVE LETTER;Miscellaneous Symbols and Pictographs
&#128041;&#128041;0x1f429;17;0.870;0.050;0.550;0.400;0.350;0.350;0.27;POODLE;Miscellaneous Symbols and Pictographs
&#127772;&#127772;0x1f31c;17;0.604;0.050;0.400;0.550;0.500;0.500;0.28;LAST QUARTER MOON WITH FACE;Miscellaneous Symbols and Pictographs
&#8986;&#8986;0x231a;17;0.649;0.150;0.500;0.350;0.200;0.200;0.32;WATCH;Miscellaneous Technical
&#128703;&#128703;0x1f6bf;17;0.669;0.100;0.200;0.700;0.600;0.600;0.32;SHOWER;Transport and Map Symbols
&#128022;&#128022;0x1f416;17;0.814;0.050;0.750;0.200;0.150;0.150;0.23;PIG;Miscellaneous Symbols and Pictographs
&#128262;&#128262;0x1f506;17;0.605;0.050;0.350;0.600;0.550;0.550;0.28;HIGH BRIGHTNESS SYMBOL;Miscellaneous Symbols and Pictographs
&#127771;&#127771;0x1f31b;17;0.680;0.050;0.350;0.600;0.550;0.550;0.28;FIRST QUARTER MOON WITH FACE;Miscellaneous Symbols and Pictographs
&#128130;&#128130;0x1f482;17;0.691;0.450;0.250;0.300;-0.150;-0.150;0.41;GUARDSMAN;Miscellaneous Symbols and Pictographs
&#128020;&#128020;0x1f414;17;0.627;0.100;0.500;0.400;0.300;0.300;0.30;CHICKEN;Miscellaneous Symbols and Pictographs
&#128590;&#128590;0x1f64e;17;0.641;0.450;0.150;0.400;-0.050;-0.050;0.44;PERSON WITH POUTING FACE;Emoticons
&#127977;&#127977;0x1f3e9;16;0.587;0.158;0.263;0.579;0.421;0.421;0.37;LOVE HOTEL;Miscellaneous Symbols and Pictographs
&#127467;&#127467;0x1f1eb;16;0.718;0.053;0.421;0.526;0.474;0.474;0.29;REGIONAL INDICATOR SYMBOL LETTER F;Enclosed Alphanumeric Supplement
&#128296;&#128296;0x1f528;16;0.739;0.368;0.368;0.263;-0.105;-0.105;0.39;HAMMER;Miscellaneous Symbols and Pictographs
&#128226;&#128226;0x1f4e2;16;0.546;0.053;0.474;0.474;0.421;0.421;0.29;PUBLIC ADDRESS LOUDSPEAKER;Miscellaneous Symbols and Pictographs
&#128038;&#128038;0x1f426;16;0.758;0.053;0.474;0.474;0.421;0.421;0.29;BIRD;Miscellaneous Symbols and Pictographs
&#128050;&#128050;0x1f432;16;0.458;0.158;0.737;0.105;-0.053;-0.053;0.25;DRAGON FACE;Miscellaneous Symbols and Pictographs
&#9851;&#9851;0x267b;16;0.439;0.053;0.421;0.526;0.474;0.474;0.29;BLACK UNIVERSAL RECYCLING SYMBOL;Miscellaneous Symbols
&#127768;&#127768;0x1f318;16;0.578;0.053;0.316;0.632;0.579;0.579;0.29;WANING CRESCENT MOON SYMBOL;Miscellaneous Symbols and Pictographs
&#127824;&#127824;0x1f350;16;0.845;0.316;0.211;0.474;0.158;0.158;0.43;PEAR;Miscellaneous Symbols and Pictographs
&#127764;&#127764;0x1f314;16;0.447;0.053;0.316;0.632;0.579;0.579;0.29;WAXING GIBBOUS MOON SYMBOL;Miscellaneous Symbols and Pictographs
&#9573;&#9573;0x2565;16;0.869;0.368;0.158;0.474;0.105;0.105;0.45;BOX DRAWINGS DOWN DOUBLE AND HORIZONTAL SINGLE;Box Drawing
&#10058;&#10058;0x274a;16;0.452;0.053;0.895;0.053;0.000;0.000;0.16;EIGHT TEARDROP-SPOKED PROPELLER ASTERISK;Dingbats
&#128086;&#128086;0x1f456;15;0.910;0.111;0.444;0.444;0.333;0.333;0.34;JEANS;Miscellaneous Symbols and Pictographs
&#128698;&#128698;0x1f6ba;15;0.677;0.167;0.500;0.333;0.167;0.167;0.35;WOMENS SYMBOL;Transport and Map Symbols
&#128535;&#128535;0x1f617;15;0.714;0.111;0.167;0.722;0.611;0.611;0.34;KISSING FACE;Emoticons
&#127917;&#127917;0x1f3ad;15;0.658;0.333;0.333;0.333;0.000;0.000;0.41;PERFORMING ARTS;Miscellaneous Symbols and Pictographs
&#128004;&#128004;0x1f404;15;0.826;0.167;0.389;0.444;0.278;0.278;0.37;COW;Miscellaneous Symbols and Pictographs
&#9695;&#9695;0x25df;15;0.647;0.167;0.722;0.111;-0.056;-0.056;0.27;LOWER LEFT QUADRANT CIRCULAR ARC;Geometric Shapes
&#127842;&#127842;0x1f362;15;0.684;0.333;0.444;0.222;-0.111;-0.111;0.37;ODEN;Miscellaneous Symbols and Pictographs
&#127912;&#127912;0x1f3a8;15;0.491;0.111;0.611;0.278;0.167;0.167;0.30;ARTIST PALETTE;Miscellaneous Symbols and Pictographs
&#11015;&#11015;0x2b07;15;0.632;0.167;0.278;0.556;0.389;0.389;0.38;DOWNWARDS BLACK ARROW;Miscellaneous Symbols and Arrows
&#128700;&#128700;0x1f6bc;15;0.693;0.056;0.333;0.611;0.556;0.556;0.30;BABY SYMBOL;Transport and Map Symbols
&#9970;&#9970;0x26f2;15;0.697;0.111;0.722;0.167;0.056;0.056;0.27;FOUNTAIN;Miscellaneous Symbols
&#9601;&#9601;0x2581;15;0.711;0.056;0.889;0.056;0.000;0.000;0.17;LOWER ONE EIGHTH BLOCK;Block Elements
&#127476;&#127476;0x1f1f4;15;0.676;0.056;0.556;0.389;0.333;0.333;0.29;REGIONAL INDICATOR SYMBOL LETTER O;Enclosed Alphanumeric Supplement
&#127767;&#127767;0x1f317;15;0.547;0.056;0.278;0.667;0.611;0.611;0.30;LAST QUARTER MOON SYMBOL;Miscellaneous Symbols and Pictographs
&#127766;&#127766;0x1f316;15;0.535;0.056;0.278;0.667;0.611;0.611;0.30;WANING GIBBOUS MOON SYMBOL;Miscellaneous Symbols and Pictographs
&#128261;&#128261;0x1f505;15;0.635;0.056;0.056;0.889;0.833;0.833;0.25;LOW BRIGHTNESS SYMBOL;Miscellaneous Symbols and Pictographs
&#128092;&#128092;0x1f45c;14;0.675;0.176;0.412;0.412;0.235;0.235;0.38;HANDBAG;Miscellaneous Symbols and Pictographs
&#128012;&#128012;0x1f40c;14;0.421;0.059;0.235;0.706;0.647;0.647;0.31;SNAIL;Miscellaneous Symbols and Pictographs
&#128188;&#128188;0x1f4bc;14;0.573;0.118;0.235;0.647;0.529;0.529;0.36;BRIEFCASE;Miscellaneous Symbols and Pictographs
&#128661;&#128661;0x1f695;14;0.526;0.235;0.529;0.235;0.000;0.000;0.36;TAXI;Transport and Map Symbols
&#128057;&#128057;0x1f439;14;0.744;0.235;0.235;0.529;0.294;0.294;0.43;HAMSTER FACE;Miscellaneous Symbols and Pictographs
&#127776;&#127776;0x1f320;14;0.761;0.176;0.118;0.706;0.529;0.529;0.41;SHOOTING STAR;Miscellaneous Symbols and Pictographs
&#128008;&#128008;0x1f408;14;0.645;0.059;0.588;0.353;0.294;0.294;0.30;CAT;Miscellaneous Symbols and Pictographs
&#8679;&#8679;0x21e7;14;0.461;0.059;0.765;0.176;0.118;0.118;0.25;UPWARDS WHITE ARROW;Arrows
&#9742;&#9742;0x260e;14;0.837;0.176;0.647;0.176;0.000;0.000;0.31;BLACK TELEPHONE;Miscellaneous Symbols
&#127745;&#127745;0x1f301;14;0.744;0.118;0.588;0.294;0.176;0.176;0.32;FOGGY;Miscellaneous Symbols and Pictographs
&#9899;&#9899;0x26ab;14;0.441;0.235;0.294;0.471;0.235;0.235;0.42;MEDIUM BLACK CIRCLE;Miscellaneous Symbols
&#9831;&#9831;0x2667;14;0.775;0.059;0.412;0.529;0.471;0.471;0.32;WHITE CLUB SUIT;Miscellaneous Symbols
&#127984;&#127984;0x1f3f0;14;0.434;0.118;0.471;0.412;0.294;0.294;0.35;EUROPEAN CASTLE;Miscellaneous Symbols and Pictographs
&#128693;&#128693;0x1f6b5;14;0.556;0.059;0.529;0.412;0.353;0.353;0.31;MOUNTAIN BICYCLIST;Transport and Map Symbols
&#127906;&#127906;0x1f3a2;14;0.826;0.118;0.294;0.588;0.471;0.471;0.36;ROLLER COASTER;Miscellaneous Symbols and Pictographs
&#127927;&#127927;0x1f3b7;14;0.760;0.059;0.235;0.706;0.647;0.647;0.31;SAXOPHONE;Miscellaneous Symbols and Pictographs
&#127888;&#127888;0x1f390;14;0.291;0.059;0.706;0.235;0.176;0.176;0.27;WIND CHIME;Miscellaneous Symbols and Pictographs
&#9480;&#9480;0x2508;14;0.793;0.765;0.059;0.176;-0.588;-0.588;0.40;BOX DRAWINGS LIGHT QUADRUPLE DASH HORIZONTAL;Box Drawing
&#9559;&#9559;0x2557;14;0.361;0.059;0.529;0.412;0.353;0.353;0.31;BOX DRAWINGS DOUBLE DOWN AND LEFT;Box Drawing
&#9585;&#9585;0x2571;14;0.548;0.059;0.882;0.059;0.000;0.000;0.18;BOX DRAWINGS LIGHT DIAGONAL UPPER RIGHT TO LOWER LEFT;Box Drawing
&#127751;&#127751;0x1f307;13;0.543;0.063;0.375;0.563;0.500;0.500;0.33;SUNSET OVER BUILDINGS;Miscellaneous Symbols and Pictographs
&#9200;&#9200;0x23f0;13;0.646;0.188;0.188;0.625;0.438;0.438;0.43;ALARM CLOCK;Miscellaneous Technical
&#8681;&#8681;0x21e9;13;0.504;0.063;0.875;0.063;0.000;0.000;0.19;DOWNWARDS WHITE ARROW;Arrows
&#128642;&#128642;0x1f682;13;0.656;0.063;0.625;0.313;0.250;0.250;0.30;STEAM LOCOMOTIVE;Transport and Map Symbols
&#9696;&#9696;0x25e0;13;0.653;0.063;0.438;0.500;0.438;0.438;0.33;UPPER HALF CIRCLE;Geometric Shapes
&#127935;&#127935;0x1f3bf;13;0.727;0.125;0.375;0.500;0.375;0.375;0.38;SKI AND SKI BOOT;Miscellaneous Symbols and Pictographs
&#10022;&#10022;0x2726;13;0.402;0.063;0.813;0.125;0.063;0.063;0.23;BLACK FOUR POINTED STAR;Dingbats
&#127380;&#127380;0x1f194;13;0.479;0.063;0.125;0.813;0.750;0.750;0.30;SQUARED ID;Enclosed Alphanumeric Supplement
&#9962;&#9962;0x26ea;13;0.387;0.188;0.500;0.313;0.125;0.125;0.38;CHURCH;Miscellaneous Symbols
&#127762;&#127762;0x1f312;13;0.446;0.063;0.313;0.625;0.563;0.563;0.33;WAXING CRESCENT MOON SYMBOL;Miscellaneous Symbols and Pictographs
&#128042;&#128042;0x1f42a;13;0.837;0.063;0.313;0.625;0.563;0.563;0.33;DROMEDARY CAMEL;Miscellaneous Symbols and Pictographs
&#9556;&#9556;0x2554;13;0.310;0.063;0.625;0.313;0.250;0.250;0.30;BOX DRAWINGS DOUBLE DOWN AND RIGHT;Box Drawing
&#9565;&#9565;0x255d;13;0.800;0.063;0.438;0.500;0.438;0.438;0.33;BOX DRAWINGS DOUBLE UP AND LEFT;Box Drawing
&#128084;&#128084;0x1f454;12;0.520;0.200;0.267;0.533;0.333;0.333;0.45;NECKTIE;Miscellaneous Symbols and Pictographs
&#128305;&#128305;0x1f531;12;0.791;0.267;0.400;0.333;0.067;0.067;0.44;TRIDENT EMBLEM;Miscellaneous Symbols and Pictographs
&#127379;&#127379;0x1f193;12;0.551;0.067;0.667;0.267;0.200;0.200;0.31;SQUARED FREE;Enclosed Alphanumeric Supplement
&#128011;&#128011;0x1f40b;12;0.866;0.200;0.400;0.400;0.200;0.200;0.42;WHALE;Miscellaneous Symbols and Pictographs
&#9661;&#9661;0x25bd;12;0.844;0.133;0.333;0.533;0.400;0.400;0.40;WHITE DOWN-POINTING TRIANGLE;Geometric Shapes
&#9602;&#9602;0x2582;12;0.579;0.067;0.867;0.067;0.000;0.000;0.21;LOWER ONE QUARTER BLOCK;Block Elements
&#128027;&#128027;0x1f41b;12;0.673;0.200;0.333;0.467;0.267;0.267;0.44;BUG;Miscellaneous Symbols and Pictographs
&#128085;&#128085;0x1f455;12;0.795;0.133;0.333;0.533;0.400;0.400;0.40;T-SHIRT;Miscellaneous Symbols and Pictographs
&#128651;&#128651;0x1f68b;12;0.318;0.067;0.800;0.133;0.067;0.067;0.25;TRAM CAR;Transport and Map Symbols
&#128179;&#128179;0x1f4b3;12;0.834;0.133;0.333;0.533;0.400;0.400;0.40;CREDIT CARD;Miscellaneous Symbols and Pictographs
&#127750;&#127750;0x1f306;12;0.765;0.200;0.467;0.333;0.133;0.133;0.41;CITYSCAPE AT DUSK;Miscellaneous Symbols and Pictographs
&#127975;&#127975;0x1f3e7;12;0.888;0.067;0.067;0.867;0.800;0.800;0.31;AUTOMATED TELLER MACHINE;Miscellaneous Symbols and Pictographs
&#128161;&#128161;0x1f4a1;12;0.598;0.067;0.267;0.667;0.600;0.600;0.35;ELECTRIC LIGHT BULB;Miscellaneous Symbols and Pictographs
&#128313;&#128313;0x1f539;12;0.170;0.200;0.467;0.333;0.133;0.133;0.41;SMALL BLUE DIAMOND;Miscellaneous Symbols and Pictographs
&#11013;&#11013;0x2b05;12;0.663;0.067;0.400;0.533;0.467;0.467;0.35;LEFTWARDS BLACK ARROW;Miscellaneous Symbols and Arrows
&#127840;&#127840;0x1f360;12;0.939;0.400;0.200;0.400;0.000;0.000;0.51;ROASTED SWEET POTATO;Miscellaneous Symbols and Pictographs
&#128043;&#128043;0x1f42b;12;0.770;0.067;0.533;0.400;0.333;0.333;0.34;BACTRIAN CAMEL;Miscellaneous Symbols and Pictographs
&#127978;&#127978;0x1f3ea;12;0.374;0.200;0.533;0.267;0.067;0.067;0.38;CONVENIENCE STORE;Miscellaneous Symbols and Pictographs
&#1769;&#1769;0x6e9;12;0.464;0.067;0.867;0.067;0.000;0.000;0.21;ARABIC PLACE OF SAJDAH;Arabic
&#127473;&#127473;0x1f1f1;12;0.713;0.067;0.467;0.467;0.400;0.400;0.35;REGIONAL INDICATOR SYMBOL LETTER L;Enclosed Alphanumeric Supplement
&#128249;&#128249;0x1f4f9;11;0.718;0.143;0.286;0.571;0.429;0.429;0.43;VIDEO CAMERA;Miscellaneous Symbols and Pictographs
&#128094;&#128094;0x1f45e;11;0.779;0.143;0.286;0.571;0.429;0.429;0.43;MANS SHOE;Miscellaneous Symbols and Pictographs
&#128657;&#128657;0x1f691;11;0.758;0.286;0.357;0.357;0.071;0.071;0.47;AMBULANCE;Transport and Map Symbols
&#127384;&#127384;0x1f198;11;0.775;0.357;0.214;0.429;0.071;0.071;0.52;SQUARED SOS;Enclosed Alphanumeric Supplement
&#128090;&#128090;0x1f45a;11;0.810;0.071;0.286;0.643;0.571;0.571;0.37;WOMANS CLOTHES;Miscellaneous Symbols and Pictographs
&#128653;&#128653;0x1f68d;11;0.660;0.357;0.214;0.429;0.071;0.071;0.52;ONCOMING BUS;Transport and Map Symbols
&#9633;&#9633;0x25a1;11;0.674;0.571;0.071;0.357;-0.214;-0.214;0.56;WHITE SQUARE;Geometric Shapes
&#128002;&#128002;0x1f402;11;0.774;0.143;0.571;0.286;0.143;0.143;0.38;OX;Miscellaneous Symbols and Pictographs
&#128675;&#128675;0x1f6a3;11;0.713;0.071;0.286;0.643;0.571;0.571;0.37;ROWBOAT;Transport and Map Symbols
&#10035;&#10035;0x2733;11;0.372;0.071;0.857;0.071;0.000;0.000;0.22;EIGHT SPOKED ASTERISK;Dingbats
&#127945;&#127945;0x1f3c9;11;0.837;0.071;0.357;0.571;0.500;0.500;0.37;RUGBY FOOTBALL;Miscellaneous Symbols and Pictographs
&#128507;&#128507;0x1f5fb;11;0.723;0.071;0.286;0.643;0.571;0.571;0.37;MOUNT FUJI;Miscellaneous Symbols and Pictographs
&#128000;&#128000;0x1f400;11;0.701;0.143;0.571;0.286;0.143;0.143;0.38;RAT;Miscellaneous Symbols and Pictographs
&#9574;&#9574;0x2566;11;0.220;0.071;0.500;0.429;0.357;0.357;0.36;BOX DRAWINGS DOUBLE DOWN AND HORIZONTAL;Box Drawing
&#9978;&#9978;0x26fa;10;0.906;0.154;0.231;0.615;0.462;0.462;0.46;TENT;Miscellaneous Symbols
&#128021;&#128021;0x1f415;10;0.879;0.154;0.462;0.385;0.231;0.231;0.43;DOG;Miscellaneous Symbols and Pictographs
&#127938;&#127938;0x1f3c2;10;0.777;0.154;0.308;0.538;0.385;0.385;0.46;SNOWBOARDER;Miscellaneous Symbols and Pictographs
&#128097;&#128097;0x1f461;10;0.635;0.154;0.308;0.538;0.385;0.385;0.46;WOMANS SANDAL;Miscellaneous Symbols and Pictographs
&#128251;&#128251;0x1f4fb;10;0.726;0.154;0.385;0.462;0.308;0.308;0.45;RADIO;Miscellaneous Symbols and Pictographs
&#10002;&#10002;0x2712;10;0.544;0.154;0.462;0.385;0.231;0.231;0.43;BLACK NIB;Dingbats
&#127792;&#127792;0x1f330;10;0.786;0.077;0.308;0.615;0.538;0.538;0.39;CHESTNUT;Miscellaneous Symbols and Pictographs
&#127970;&#127970;0x1f3e2;10;0.542;0.077;0.692;0.231;0.154;0.154;0.33;OFFICE BUILDING;Miscellaneous Symbols and Pictographs
&#127890;&#127890;0x1f392;10;0.614;0.154;0.231;0.615;0.462;0.462;0.46;SCHOOL SATCHEL;Miscellaneous Symbols and Pictographs
&#8978;&#8978;0x2312;10;0.624;0.077;0.308;0.615;0.538;0.538;0.39;ARC;Miscellaneous Technical
&#127979;&#127979;0x1f3eb;10;0.644;0.538;0.154;0.308;-0.231;-0.231;0.55;SCHOOL;Miscellaneous Symbols and Pictographs
&#128244;&#128244;0x1f4f4;10;0.982;0.154;0.077;0.769;0.615;0.615;0.46;MOBILE PHONE OFF;Miscellaneous Symbols and Pictographs
&#128674;&#128674;0x1f6a2;10;0.818;0.308;0.154;0.538;0.231;0.231;0.55;SHIP;Transport and Map Symbols
&#128666;&#128666;0x1f69a;10;0.479;0.231;0.615;0.154;-0.077;-0.077;0.38;DELIVERY TRUCK;Transport and Map Symbols
&#128009;&#128009;0x1f409;10;0.628;0.077;0.692;0.231;0.154;0.154;0.33;DRAGON;Miscellaneous Symbols and Pictographs
&#10066;&#10066;0x2752;10;0.587;0.077;0.615;0.308;0.231;0.231;0.36;UPPER RIGHT SHADOWED WHITE SQUARE;Dingbats
&#128010;&#128010;0x1f40a;10;0.846;0.231;0.462;0.308;0.077;0.077;0.45;CROCODILE;Miscellaneous Symbols and Pictographs
&#128276;&#128276;0x1f514;10;0.713;0.077;0.077;0.846;0.769;0.769;0.36;BELL;Miscellaneous Symbols and Pictographs
&#9698;&#9698;0x25e2;10;0.572;0.077;0.231;0.692;0.615;0.615;0.39;BLACK LOWER RIGHT TRIANGLE;Geometric Shapes
&#127973;&#127973;0x1f3e5;9;0.648;0.167;0.417;0.417;0.250;0.250;0.47;HOSPITAL;Miscellaneous Symbols and Pictographs
&#10068;&#10068;0x2754;9;0.787;0.333;0.333;0.333;0.000;0.000;0.53;WHITE QUESTION MARK ORNAMENT;Dingbats
&#128662;&#128662;0x1f696;9;0.800;0.333;0.417;0.250;-0.083;-0.083;0.50;ONCOMING TAXI;Transport and Map Symbols
&#127183;&#127183;0x1f0cf;9;0.686;0.333;0.250;0.417;0.083;0.083;0.56;PLAYING CARD BLACK JOKER;Playing Cards
&#9660;&#9660;0x25bc;9;0.657;0.250;0.417;0.333;0.083;0.083;0.50;BLACK DOWN-POINTING TRIANGLE;Geometric Shapes
&#9612;&#9612;0x258c;9;0.421;0.417;0.417;0.167;-0.250;-0.250;0.47;LEFT HALF BLOCK;Block Elements
&#9755;&#9755;0x261b;9;0.554;0.083;0.500;0.417;0.333;0.333;0.41;BLACK RIGHT POINTING INDEX;Miscellaneous Symbols
&#10025;&#10025;0x2729;9;0.266;0.083;0.833;0.083;0.000;0.000;0.27;STRESS OUTLINED WHITE STAR;Dingbats
&#128146;&#128146;0x1f492;9;0.794;0.083;0.333;0.583;0.500;0.500;0.42;WEDDING;Miscellaneous Symbols and Pictographs
&#128676;&#128676;0x1f6a4;9;0.504;0.083;0.500;0.417;0.333;0.333;0.41;SPEEDBOAT;Transport and Map Symbols
&#128016;&#128016;0x1f410;9;0.721;0.083;0.417;0.500;0.417;0.417;0.42;GOAT;Miscellaneous Symbols and Pictographs
&#9632;&#9632;0x25a0;9;0.790;0.500;0.250;0.250;-0.250;-0.250;0.54;BLACK SQUARE;Geometric Shapes
&#128282;&#128282;0x1f51a;9;0.869;0.167;0.333;0.500;0.333;0.333;0.49;END WITH LEFTWARDS ARROW ABOVE;Miscellaneous Symbols and Pictographs
&#127931;&#127931;0x1f3bb;9;0.721;0.083;0.500;0.417;0.333;0.333;0.41;VIOLIN;Miscellaneous Symbols and Pictographs
&#128311;&#128311;0x1f537;9;0.368;0.083;0.667;0.250;0.167;0.167;0.36;LARGE BLUE DIAMOND;Miscellaneous Symbols and Pictographs
&#128678;&#128678;0x1f6a6;9;0.454;0.250;0.417;0.333;0.083;0.083;0.50;VERTICAL TRAFFIC LIGHT;Transport and Map Symbols
&#128275;&#128275;0x1f513;9;0.803;0.333;0.250;0.417;0.083;0.083;0.56;OPEN LOCK;Miscellaneous Symbols and Pictographs
&#127933;&#127933;0x1f3bd;9;0.904;0.083;0.417;0.500;0.417;0.417;0.42;RUNNING SHIRT WITH SASH;Miscellaneous Symbols and Pictographs
&#128197;&#128197;0x1f4c5;9;0.597;0.250;0.333;0.417;0.167;0.167;0.52;CALENDAR;Miscellaneous Symbols and Pictographs
&#127930;&#127930;0x1f3ba;9;0.646;0.167;0.083;0.750;0.583;0.583;0.50;TRUMPET;Miscellaneous Symbols and Pictographs
&#10031;&#10031;0x272f;9;0.321;0.083;0.833;0.083;0.000;0.000;0.27;PINWHEEL STAR;Dingbats
&#127816;&#127816;0x1f348;9;0.521;0.583;0.167;0.250;-0.333;-0.333;0.56;MELON;Miscellaneous Symbols and Pictographs
&#9993;&#9993;0x2709;9;0.441;0.167;0.417;0.417;0.250;0.250;0.47;ENVELOPE;Dingbats
&#9571;&#9571;0x2563;9;0.642;0.083;0.833;0.083;0.000;0.000;0.27;BOX DRAWINGS DOUBLE VERTICAL AND LEFT;Box Drawing
&#9700;&#9700;0x25e4;9;0.669;0.083;0.083;0.833;0.750;0.750;0.39;BLACK UPPER LEFT TRIANGLE;Geometric Shapes
&#9675;&#9675;0x25cb;8;0.625;0.091;0.364;0.545;0.455;0.455;0.45;WHITE CIRCLE;Geometric Shapes
&#127868;&#127868;0x1f37c;8;0.890;0.182;0.182;0.636;0.455;0.455;0.54;BABY BOTTLE;Miscellaneous Symbols and Pictographs
&#128192;&#128192;0x1f4c0;8;0.843;0.182;0.545;0.273;0.091;0.091;0.46;DVD;Miscellaneous Symbols and Pictographs
&#128667;&#128667;0x1f69b;8;0.552;0.273;0.636;0.091;-0.182;-0.182;0.40;ARTICULATED LORRY;Transport and Map Symbols
&#128211;&#128211;0x1f4d3;8;0.835;0.182;0.455;0.364;0.182;0.182;0.50;NOTEBOOK;Miscellaneous Symbols and Pictographs
&#9737;&#9737;0x2609;8;0.986;0.091;0.636;0.273;0.182;0.182;0.40;SUN;Miscellaneous Symbols
&#128180;&#128180;0x1f4b4;8;0.837;0.364;0.455;0.182;-0.182;-0.182;0.50;BANKNOTE WITH YEN SIGN;Miscellaneous Symbols and Pictographs
&#9532;&#9532;0x253c;8;0.595;0.273;0.455;0.273;0.000;0.000;0.51;BOX DRAWINGS LIGHT VERTICAL AND HORIZONTAL;Box Drawing
&#128003;&#128003;0x1f403;8;0.830;0.091;0.818;0.091;0.000;0.000;0.30;WATER BUFFALO;Miscellaneous Symbols and Pictographs
&#10160;&#10160;0x27b0;8;0.255;0.455;0.182;0.364;-0.091;-0.091;0.62;CURLY LOOP;Dingbats
&#128268;&#128268;0x1f50c;8;0.844;0.364;0.364;0.273;-0.091;-0.091;0.55;ELECTRIC PLUG;Miscellaneous Symbols and Pictographs
&#127812;&#127812;0x1f344;8;0.482;0.273;0.455;0.273;0.000;0.000;0.51;MUSHROOM;Miscellaneous Symbols and Pictographs
&#128213;&#128213;0x1f4d5;8;0.688;0.182;0.455;0.364;0.182;0.182;0.50;CLOSED BOOK;Miscellaneous Symbols and Pictographs
&#128227;&#128227;0x1f4e3;8;0.665;0.182;0.273;0.545;0.364;0.364;0.53;CHEERING MEGAPHONE;Miscellaneous Symbols and Pictographs
&#128659;&#128659;0x1f693;8;0.655;0.091;0.545;0.364;0.273;0.273;0.43;POLICE CAR;Transport and Map Symbols
&#128023;&#128023;0x1f417;8;0.757;0.091;0.364;0.545;0.455;0.455;0.45;BOAR;Miscellaneous Symbols and Pictographs
&#8618;&#8618;0x21aa;8;0.727;0.091;0.727;0.182;0.091;0.091;0.36;RIGHTWARDS ARROW WITH HOOK;Arrows
&#9971;&#9971;0x26f3;8;0.660;0.091;0.182;0.727;0.636;0.636;0.45;FLAG IN HOLE;Miscellaneous Symbols
&#9531;&#9531;0x253b;8;0.436;0.636;0.091;0.273;-0.364;-0.364;0.61;BOX DRAWINGS HEAVY UP AND HORIZONTAL;Box Drawing
&#9499;&#9499;0x251b;8;0.712;0.091;0.273;0.636;0.545;0.545;0.45;BOX DRAWINGS HEAVY UP AND LEFT;Box Drawing
&#9475;&#9475;0x2503;8;0.496;0.091;0.455;0.455;0.364;0.364;0.45;BOX DRAWINGS HEAVY VERTICAL;Box Drawing
&#128113;&#128113;0x1f471;7;0.584;0.200;0.500;0.300;0.100;0.100;0.52;PERSON WITH BLOND HAIR;Miscellaneous Symbols and Pictographs
&#9203;&#9203;0x23f3;7;0.829;0.400;0.200;0.400;0.000;0.000;0.66;HOURGLASS WITH FLOWING SAND;Miscellaneous Technical
&#128186;&#128186;0x1f4ba;7;0.500;0.200;0.400;0.400;0.200;0.200;0.55;SEAT;Miscellaneous Symbols and Pictographs
&#127943;&#127943;0x1f3c7;7;0.829;0.400;0.300;0.300;-0.100;-0.100;0.62;HORSE RACING;Miscellaneous Symbols and Pictographs
&#9787;&#9787;0x263b;7;0.808;0.200;0.400;0.400;0.200;0.200;0.55;BLACK SMILING FACE;Miscellaneous Symbols
&#128222;&#128222;0x1f4de;7;0.640;0.100;0.400;0.500;0.400;0.400;0.49;TELEPHONE RECEIVER;Miscellaneous Symbols and Pictographs
&#9398;&#9398;0x24b6;7;0.467;0.300;0.500;0.200;-0.100;-0.100;0.52;CIRCLED LATIN CAPITAL LETTER A;Enclosed Alphanumerics
&#127753;&#127753;0x1f309;7;0.848;0.100;0.300;0.600;0.500;0.500;0.50;BRIDGE AT NIGHT;Miscellaneous Symbols and Pictographs
&#128681;&#128681;0x1f6a9;7;0.147;0.400;0.400;0.200;-0.200;-0.200;0.55;TRIANGULAR FLAG ON POST;Transport and Map Symbols
&#9998;&#9998;0x270e;7;0.547;0.100;0.300;0.600;0.500;0.500;0.50;LOWER RIGHT PENCIL;Dingbats
&#128195;&#128195;0x1f4c3;7;0.754;0.100;0.400;0.500;0.400;0.400;0.49;PAGE WITH CURL;Miscellaneous Symbols and Pictographs
&#127976;&#127976;0x1f3e8;7;0.803;0.100;0.600;0.300;0.200;0.200;0.44;HOTEL;Miscellaneous Symbols and Pictographs
&#128204;&#128204;0x1f4cc;7;0.799;0.600;0.200;0.200;-0.400;-0.400;0.59;PUSHPIN;Miscellaneous Symbols and Pictographs
&#9806;&#9806;0x264e;7;0.855;0.300;0.500;0.200;-0.100;-0.100;0.52;LIBRA;Miscellaneous Symbols
&#128183;&#128183;0x1f4b7;7;0.573;0.100;0.400;0.500;0.400;0.400;0.49;BANKNOTE WITH POUND SIGN;Miscellaneous Symbols and Pictographs
&#128644;&#128644;0x1f684;7;0.700;0.100;0.300;0.600;0.500;0.500;0.50;HIGH-SPEED TRAIN;Transport and Map Symbols
&#9650;&#9650;0x25b2;7;0.338;0.100;0.300;0.600;0.500;0.500;0.50;BLACK UP-POINTING TRIANGLE;Geometric Shapes
&#9973;&#9973;0x26f5;7;0.324;0.100;0.300;0.600;0.500;0.500;0.50;SAILBOAT;Miscellaneous Symbols
&#128312;&#128312;0x1f538;7;0.172;0.100;0.600;0.300;0.200;0.200;0.44;SMALL ORANGE DIAMOND;Miscellaneous Symbols and Pictographs
&#8987;&#8987;0x231b;7;0.797;0.300;0.300;0.400;0.100;0.100;0.62;HOURGLASS;Miscellaneous Technical
&#128668;&#128668;0x1f69c;7;0.767;0.100;0.100;0.800;0.700;0.700;0.47;TRACTOR;Transport and Map Symbols
&#128006;&#128006;0x1f406;7;0.550;0.100;0.500;0.400;0.300;0.300;0.47;LEOPARD;Miscellaneous Symbols and Pictographs
&#128082;&#128082;0x1f452;7;0.844;0.200;0.400;0.400;0.200;0.200;0.55;WOMANS HAT;Miscellaneous Symbols and Pictographs
&#10069;&#10069;0x2755;7;0.862;0.200;0.400;0.400;0.200;0.200;0.55;WHITE EXCLAMATION MARK ORNAMENT;Dingbats
&#128283;&#128283;0x1f51b;7;0.474;0.200;0.200;0.600;0.400;0.400;0.59;ON WITH EXCLAMATION MARK WITH LEFT RIGHT ARROW ABOVE;Miscellaneous Symbols and Pictographs
&#9826;&#9826;0x2662;7;0.868;0.100;0.500;0.400;0.300;0.300;0.47;WHITE DIAMOND SUIT;Miscellaneous Symbols
&#127474;&#127474;0x1f1f2;7;0.787;0.100;0.400;0.500;0.400;0.400;0.49;REGIONAL INDICATOR SYMBOL LETTER M;Enclosed Alphanumeric Supplement
&#10053;&#10053;0x2745;7;0.247;0.100;0.200;0.700;0.600;0.600;0.49;TIGHT TRIFOLIATE SNOWFLAKE;Dingbats
&#128093;&#128093;0x1f45d;6;0.611;0.222;0.222;0.556;0.333;0.333;0.65;POUCH;Miscellaneous Symbols and Pictographs
&#10014;&#10014;0x271e;6;0.509;0.111;0.444;0.444;0.333;0.333;0.53;SHADOWED WHITE LATIN CROSS;Dingbats
&#9697;&#9697;0x25e1;6;0.947;0.111;0.556;0.333;0.222;0.222;0.50;LOWER HALF CIRCLE;Geometric Shapes
&#127883;&#127883;0x1f38b;6;0.786;0.222;0.111;0.667;0.444;0.444;0.67;TANABATA TREE;Miscellaneous Symbols and Pictographs
&#128101;&#128101;0x1f465;6;0.838;0.222;0.333;0.444;0.222;0.222;0.63;BUSTS IN SILHOUETTE;Miscellaneous Symbols and Pictographs
&#128245;&#128245;0x1f4f5;6;0.794;0.222;0.444;0.333;0.111;0.111;0.59;NO MOBILE PHONES;Miscellaneous Symbols and Pictographs
&#128033;&#128033;0x1f421;6;0.867;0.111;0.556;0.333;0.222;0.222;0.50;BLOWFISH;Miscellaneous Symbols and Pictographs
&#9670;&#9670;0x25c6;6;0.602;0.111;0.222;0.667;0.556;0.556;0.55;BLACK DIAMOND;Geometric Shapes
&#127983;&#127983;0x1f3ef;6;0.530;0.111;0.667;0.222;0.111;0.111;0.45;JAPANESE CASTLE;Miscellaneous Symbols and Pictographs
&#9730;&#9730;0x2602;6;0.453;0.222;0.556;0.222;0.000;0.000;0.53;UMBRELLA;Miscellaneous Symbols
&#128301;&#128301;0x1f52d;6;0.716;0.111;0.444;0.444;0.333;0.333;0.53;TELESCOPE;Miscellaneous Symbols and Pictographs
&#127914;&#127914;0x1f3aa;6;0.608;0.111;0.556;0.333;0.222;0.222;0.50;CIRCUS TENT;Miscellaneous Symbols and Pictographs
&#128028;&#128028;0x1f41c;6;0.880;0.111;0.333;0.556;0.444;0.444;0.55;ANT;Miscellaneous Symbols and Pictographs
&#9804;&#9804;0x264c;6;0.790;0.111;0.222;0.667;0.556;0.556;0.55;LEO;Miscellaneous Symbols
&#9744;&#9744;0x2610;6;0.538;0.778;0.111;0.111;-0.667;-0.667;0.53;BALLOT BOX;Miscellaneous Symbols
&#128119;&#128119;0x1f477;6;0.739;0.222;0.333;0.444;0.222;0.222;0.63;CONSTRUCTION WORKER;Miscellaneous Symbols and Pictographs
&#8627;&#8627;0x21b3;6;0.346;0.111;0.778;0.111;0.000;0.000;0.38;DOWNWARDS ARROW WITH TIP RIGHTWARDS;Arrows
&#128264;&#128264;0x1f508;6;0.635;0.111;0.556;0.333;0.222;0.222;0.50;SPEAKER;Miscellaneous Symbols and Pictographs
&#128196;&#128196;0x1f4c4;6;0.624;0.111;0.111;0.778;0.667;0.667;0.53;PAGE FACING UP;Miscellaneous Symbols and Pictographs
&#128205;&#128205;0x1f4cd;6;0.489;0.222;0.444;0.333;0.111;0.111;0.59;ROUND PUSHPIN;Miscellaneous Symbols and Pictographs
&#128656;&#128656;0x1f690;6;0.776;0.111;0.222;0.667;0.556;0.556;0.55;MINIBUS;Transport and Map Symbols
&#128660;&#128660;0x1f694;6;0.522;0.222;0.556;0.222;0.000;0.000;0.53;ONCOMING POLICE CAR;Transport and Map Symbols
&#127755;&#127755;0x1f30b;6;0.380;0.111;0.333;0.556;0.444;0.444;0.55;VOLCANO;Miscellaneous Symbols and Pictographs
&#128225;&#128225;0x1f4e1;6;0.554;0.222;0.333;0.444;0.222;0.222;0.63;SATELLITE ANTENNA;Miscellaneous Symbols and Pictographs
&#9193;&#9193;0x23e9;6;0.732;0.111;0.667;0.222;0.111;0.111;0.45;BLACK RIGHT-POINTING DOUBLE TRIANGLE;Miscellaneous Technical
&#128691;&#128691;0x1f6b3;6;0.103;0.111;0.111;0.778;0.667;0.667;0.53;NO BICYCLES;Transport and Map Symbols
&#10008;&#10008;0x2718;6;0.539;0.111;0.222;0.667;0.556;0.556;0.55;HEAVY BALLOT X;Dingbats
&#1758;&#1758;0x6de;6;0.472;0.111;0.778;0.111;0.000;0.000;0.38;ARABIC START OF RUB EL HIZB;Arabic
&#9790;&#9790;0x263e;6;0.453;0.111;0.778;0.111;0.000;0.000;0.38;LAST QUARTER MOON;Miscellaneous Symbols
&#127344;&#127344;0x1f170;6;0.311;0.222;0.333;0.444;0.222;0.222;0.63;NEGATIVE SQUARED LATIN CAPITAL LETTER A;Enclosed Alphanumeric Supplement
&#128229;&#128229;0x1f4e5;6;0.982;0.111;0.778;0.111;0.000;0.000;0.38;INBOX TRAY;Miscellaneous Symbols and Pictographs
&#127484;&#127484;0x1f1fc;6;0.734;0.111;0.444;0.444;0.333;0.333;0.53;REGIONAL INDICATOR SYMBOL LETTER W;Enclosed Alphanumeric Supplement
&#9491;&#9491;0x2513;6;0.515;0.111;0.333;0.556;0.444;0.444;0.55;BOX DRAWINGS HEAVY DOWN AND LEFT;Box Drawing
&#9507;&#9507;0x2523;6;0.487;0.111;0.333;0.556;0.444;0.444;0.55;BOX DRAWINGS HEAVY VERTICAL AND RIGHT;Box Drawing
&#9409;&#9409;0x24c1;6;0.727;0.111;0.444;0.444;0.333;0.333;0.53;CIRCLED LATIN CAPITAL LETTER L;Enclosed Alphanumerics
&#9402;&#9402;0x24ba;6;0.815;0.111;0.444;0.444;0.333;0.333;0.53;CIRCLED LATIN CAPITAL LETTER E;Enclosed Alphanumerics
&#128294;&#128294;0x1f526;5;0.853;0.125;0.750;0.125;0.000;0.000;0.44;ELECTRIC TORCH;Miscellaneous Symbols and Pictographs
&#128100;&#128100;0x1f464;5;0.786;0.125;0.250;0.625;0.500;0.500;0.62;BUST IN SILHOUETTE;Miscellaneous Symbols and Pictographs
&#128641;&#128641;0x1f681;5;0.510;0.125;0.625;0.250;0.125;0.125;0.53;HELICOPTER;Transport and Map Symbols
&#127904;&#127904;0x1f3a0;5;0.574;0.125;0.375;0.500;0.375;0.375;0.61;CAROUSEL HORSE;Miscellaneous Symbols and Pictographs
&#128001;&#128001;0x1f401;5;0.419;0.375;0.500;0.125;-0.250;-0.250;0.58;MOUSE;Miscellaneous Symbols and Pictographs
&#128215;&#128215;0x1f4d7;5;0.789;0.250;0.375;0.375;0.125;0.125;0.68;GREEN BOOK;Miscellaneous Symbols and Pictographs
&#9488;&#9488;0x2510;5;0.771;0.375;0.375;0.250;-0.125;-0.125;0.68;BOX DRAWINGS LIGHT DOWN AND LEFT;Box Drawing
&#9774;&#9774;0x262e;5;0.750;0.375;0.250;0.375;0.000;0.000;0.76;PEACE SYMBOL;Miscellaneous Symbols
&#9794;&#9794;0x2642;5;0.580;0.125;0.625;0.250;0.125;0.125;0.53;MALE SIGN;Miscellaneous Symbols
&#9694;&#9694;0x25de;5;0.723;0.250;0.500;0.250;0.000;0.000;0.62;LOWER RIGHT QUADRANT CIRCULAR ARC;Geometric Shapes
&#128239;&#128239;0x1f4ef;5;0.974;0.250;0.625;0.125;-0.125;-0.125;0.53;POSTAL HORN;Miscellaneous Symbols and Pictographs
&#128297;&#128297;0x1f529;5;0.673;0.250;0.375;0.375;0.125;0.125;0.68;NUT AND BOLT;Miscellaneous Symbols and Pictographs
&#128098;&#128098;0x1f462;5;0.994;0.125;0.250;0.625;0.500;0.500;0.62;WOMANS BOOTS;Miscellaneous Symbols and Pictographs
&#9666;&#9666;0x25c2;5;0.199;0.125;0.500;0.375;0.250;0.250;0.58;BLACK LEFT-POINTING SMALL TRIANGLE;Geometric Shapes
&#128240;&#128240;0x1f4f0;5;0.860;0.250;0.250;0.500;0.250;0.250;0.73;NEWSPAPER;Miscellaneous Symbols and Pictographs
&#128246;&#128246;0x1f4f6;5;0.930;0.125;0.500;0.375;0.250;0.250;0.58;ANTENNA WITH BARS;Miscellaneous Symbols and Pictographs
&#128677;&#128677;0x1f6a5;5;0.724;0.250;0.500;0.250;0.000;0.000;0.62;HORIZONTAL TRAFFIC LIGHT;Transport and Map Symbols
&#127748;&#127748;0x1f304;5;0.286;0.125;0.625;0.250;0.125;0.125;0.53;SUNRISE OVER MOUNTAINS;Miscellaneous Symbols and Pictographs
&#128510;&#128510;0x1f5fe;5;0.739;0.125;0.500;0.375;0.250;0.250;0.58;SILHOUETTE OF JAPAN;Miscellaneous Symbols and Pictographs
&#128310;&#128310;0x1f536;5;0.786;0.125;0.500;0.375;0.250;0.250;0.58;LARGE ORANGE DIAMOND;Miscellaneous Symbols and Pictographs
&#127972;&#127972;0x1f3e4;5;0.273;0.125;0.500;0.375;0.250;0.250;0.58;EUROPEAN POST OFFICE;Miscellaneous Symbols and Pictographs
&#127913;&#127913;0x1f3a9;5;0.586;0.125;0.500;0.375;0.250;0.250;0.58;TOP HAT;Miscellaneous Symbols and Pictographs
&#9410;&#9410;0x24c2;5;0.765;0.250;0.250;0.500;0.250;0.250;0.73;CIRCLED LATIN CAPITAL LETTER M;Enclosed Alphanumerics
&#128295;&#128295;0x1f527;5;0.677;0.625;0.125;0.250;-0.375;-0.375;0.75;WRENCH;Miscellaneous Symbols and Pictographs
&#128005;&#128005;0x1f405;5;0.819;0.125;0.625;0.250;0.125;0.125;0.53;TIGER;Miscellaneous Symbols and Pictographs
&#9838;&#9838;0x266e;5;0.937;0.125;0.625;0.250;0.125;0.125;0.53;MUSIC NATURAL SIGN;Miscellaneous Symbols
&#127358;&#127358;0x1f17e;5;0.977;0.375;0.375;0.250;-0.125;-0.125;0.68;NEGATIVE SQUARED LATIN CAPITAL LETTER O;Enclosed Alphanumeric Supplement
&#128260;&#128260;0x1f504;5;0.971;0.125;0.750;0.125;0.000;0.000;0.44;ANTICLOCKWISE DOWNWARDS AND UPWARDS OPEN CIRCLE ARROWS;Miscellaneous Symbols and Pictographs
&#9732;&#9732;0x2604;5;0.435;0.125;0.750;0.125;0.000;0.000;0.44;COMET;Miscellaneous Symbols
&#9768;&#9768;0x2628;5;0.458;0.125;0.750;0.125;0.000;0.000;0.44;CROSS OF LORRAINE;Miscellaneous Symbols
